0610007N19Rik
0610007P14Rik
0610009D07Rik
0610011F06Rik
0610012G03Rik
0610031J06Rik
0610037L13Rik
1110001A16Rik
1110001J03Rik
1110002L01Rik
1110006O24Rik
1110007C09Rik
1110008J03Rik
1110008L16Rik
1110008P14Rik
1110012L19Rik
1110018G07Rik
1110020A21Rik
1110032A03Rik
1110037F02Rik
1110038B12Rik
1110046J04Rik
1110051M20Rik
1110054M08Rik
1110057K04Rik
1110059E24Rik
1110059M19Rik
1190002F15Rik
1190002N15Rik
1190005I06Rik
1190007I07Rik
1200011I18Rik
1500009L16Rik
1500012F01Rik
1500032L24Rik
1600002H07Rik
1600002K03Rik
1600012H06Rik
1600014C10Rik
1600016N20Rik
1600019K03Rik
1700001L05Rik
1700003E16Rik
1700011J10Rik
1700013G23Rik
1700016K19Rik
1700020I14Rik
1700021F05Rik
1700021K19Rik
1700024P16Rik
1700025G04Rik
1700034E13Rik
1700048O20Rik
1700049G17Rik
1700052K11Rik
1700052N19Rik
1700055N04Rik
1700056E22Rik
1700066J24Rik
1700066M21Rik
1700094D03Rik
1700096K18Rik
1700102P08Rik
1700123O20Rik
1810008I18Rik
1810009A15Rik
1810010H24Rik
1810011O10Rik
1810013L24Rik
1810022K09Rik
1810026J23Rik
1810030O07Rik
1810032O08Rik
1810034E14Rik
1810043G02Rik
1810044D09Rik
1810055G02Rik
2010012O05Rik
2010015L04Rik
2010107E04Rik
2010111I01Rik
2010315B03Rik
2210010C04Rik
2210018M11Rik
2210404O09Rik
2210408I21Rik
2300009A05Rik
2310008H04Rik
2310008H09Rik
2310015A10Rik
2310022A10Rik
2310022B05Rik
2310033P09Rik
2310034O05Rik
2310039H08Rik
2310040G24Rik
2310044G17Rik
2310045N01Rik
2310057M21Rik
2310061I04Rik
2310061J03Rik
2410002F23Rik
2410004N09Rik
2410006H16Rik
2410015M20Rik
2410016O06Rik
2410021H03Rik
2410066E13Rik
2410089E03Rik
2410127L17Rik
2410131K14Rik
2500004C02Rik
2510009E07Rik
2610001J05Rik
2610002M06Rik
2610005L07Rik
2610008E11Rik
2610019E17Rik
2610034B18Rik
2610037D02Rik
2610203C20Rik
2610301B20Rik
2610301G19Rik
2610507I01Rik
2610524H06Rik
2700038G22Rik
2700049A03Rik
2700060E02Rik
2700062C07Rik
2700081O15Rik
2700089E24Rik
2700089I24Rik
2700094K13Rik
2700099C18Rik
2810002D19Rik
2810004N23Rik
2810006K23Rik
2810029C07Rik
2810403A07Rik
2810407C02Rik
2810410L24Rik
2810417H13Rik
2810428I15Rik
2810442I21Rik
2810454H06Rik
2810474O19Rik
2900005J15Rik
2900011O08Rik
2900026A02Rik
2900041M22Rik
2900056M20Rik
2900097C17Rik
3110001D03Rik
3110002H16Rik
3110007F17Rik
3110009F21Rik
3110021N24Rik
3110039M20Rik
3110043O21Rik
3110045C21Rik
3110056K07Rik
3110062M04Rik
3230401D17Rik
3300005D01Rik
3830403N18Rik
3830406C13Rik
3830417A13Rik
4430402I18Rik
4632415L05Rik
4632428N05Rik
4632434I11Rik
4732471J01Rik
4831440E17Rik
4833420G17Rik
4833439L19Rik
4921524J17Rik
4921531C22Rik
4930412C18Rik
4930422G04Rik
4930427A07Rik
4930431P03Rik
4930444A02Rik
4930452B06Rik
4930453N24Rik
4930461G14Rik
4930470H14Rik
4930474M22Rik
4930515G01Rik
4930519F16Rik
4930523C07Rik
4930550L24Rik
4930555B11Rik
4930558J18Rik
4930562F07Rik
4930579G24Rik
4930581F22Rik
4931406C07Rik
4931406P16Rik
4931408D14Rik
4931428F04Rik
4932415G12Rik
4932438A13Rik
4933404O12Rik
4933408B17Rik
4933409K07Rik
4933412E12Rik
4933426M11Rik
4933427G17Rik
4933434E20Rik
4933436C20Rik
5031410I06Rik
5031414D18Rik
5031439G07Rik
5033406O09Rik
5330417C22Rik
5430403N17Rik
5430416N02Rik
5430416O09Rik
5430421N21Rik
5430435G22Rik
5730408K05Rik
5730409E04Rik
5730455P16Rik
5730508B09Rik
5730559C18Rik
5830417I10Rik
5830418K08Rik
5930403L14Rik
6030407O03Rik
6030419C18Rik
6030458C11Rik
6330403M23Rik
6330416G13Rik
6430548M08Rik
6430550D23Rik
6530402F18Rik
6720456H20Rik
6720489N17Rik
6820431F20Rik
7530420F21Rik
8030462N17Rik
8430429K09Rik
8430436N08Rik
9030025P20Rik
9030617O03Rik
9030624J02Rik
9130024F11Rik
9130206I24Rik
9130401M01Rik
9230110C19Rik
9230116N13Rik
9330020H09Rik
9330133O14Rik
9330151L19Rik
9330159M07Rik
9330175E14Rik
9430008C03Rik
9430015G10Rik
9430016H08Rik
9430020K01Rik
9430037G07Rik
9530068E07Rik
9530082P21Rik
9630033F20Rik
9830147E19Rik
9930012K11Rik
9930013L23Rik
9930014A18Rik
9930021J03Rik
9930111J21Rik1
A030009H04Rik
A130049A11Rik
A230028O05Rik
A230046K03Rik
A230050P20Rik
A230072C01Rik
A330021E22Rik
A330023F24Rik
A430005L14Rik
A430033K04Rik
A430035B10Rik
A430105I19Rik
A4galt
A530032D15Rik
A530046M15Rik
A530072M11Rik
A630001G21Rik
A630033H20Rik
A630066F11Rik
A630095E13Rik
A730085A09Rik
A830052D11Rik
A830080D01Rik
A830082K12Rik
A930001C03Rik
A930003A15Rik
A930013F10Rik
A930015D03Rik
AA387883
AA414768
AA415398
AA467197
AI118078
AI316807
AI450353
AI462493
AI464131
AI467606
AI480653
AI506816
AI597468
AI597479
AI607873
AI662270
AI836003
AI837181
AI846148
AK010878
AK129341
AU019823
AU023762
AU040320
AU041133
AW011738
AW209491
AW549877
AW551984
AW554918
Aaas
Aacs
Aaed1
Aagab
Aak1
Aamdc
Aar2
Aars
Aars2
Aasdhppt
Aatf
Abca1
Abca12
Abca13
Abca14
Abca2
Abca3
Abca4
Abca5
Abca7
Abca8a
Abca8b
Abcb10
Abcb1a
Abcb1b
Abcb4
Abcb6
Abcb7
Abcb8
Abcb9
Abcc1
Abcc10
Abcc3
Abcc4
Abcc5
Abcd1
Abcd2
Abcd4
Abcf1
Abcf2
Abcg1
Abcg2
Abhd1
Abhd11
Abhd13
Abhd14a
Abhd14b
Abhd16a
Abhd2
Abhd3
Abhd5
Abhd6
Abhd8
Abi2
Abi3bp
Abl2
Abr
Abra
Abt1
Abtb2
Acaa2
Acaca
Acacb
Acad12
Acad8
Acad9
Acadm
Acads
Acadsb
Acadvl
Acap2
Acap3
Acat1
Acat2
Acbd3
Acbd5
Acbd6
Acer3
Acly
Aco1
Aco2
Acot13
Acot2
Acot7
Acot9
Acox1
Acox2
Acox3
Acp2
Acp6
Acpl2
Acpp
Acsbg1
Acsf2
Acsl1
Acsl4
Acsl5
Acss2
Acta1
Acta2
Actb
Actc1
Actg1
Actg2
Actl6a
Actn1
Actn4
Actr10
Actr1a
Actr1b
Actr2
Actr3
Actr3b
Actr5
Actr8
Acvr1
Acvr1b
Acvr2a
Acvrl1
Acy1
Acy3
Acyp1
Acyp2
Ada
Adam10
Adam12
Adam15
Adam19
Adam22
Adam23
Adam5
Adam8
Adam9
Adamts10
Adamts12
Adamts14
Adamts15
Adamts2
Adamts4
Adamts5
Adamtsl1
Adamtsl3
Adamtsl4
Adar
Adat1
Adc
Adck3
Adck5
Adcy1
Adcy3
Adcy6
Adcy7
Adcy8
Add1
Add2
Add3
Adh5
Adh7
Adhfe1
Adi1
Adipor1
Adipor2
Adk
Adm
Adm2
Adnp2
Ado
Adora2a
Adpgk
Adprh
Adprhl1
Adprm
Adra1d
Adrb1
Adrbk1
Adrbk2
Adsl
Adss
Adssl1
Aebp1
Aebp2
Aen
Aes
Afap1
Afap1l1
Afap1l2
Aff1
Aff2
Aff3
Aff4
Afg3l2
Afmid
Aftph
Aga
Agap1
Agap3
Agbl3
Agbl4
Agbl5
Agfg1
Agfg2
Agpat1
Agpat2
Agpat4
Agpat5
Agpat6
Agpat9
Agphd1
Agps
Agrn
Agt
Agtpbp1
Agxt2l2
Ahctf1
Ahcy
Ahcyl1
Ahcyl2
Ahdc1
Ahi1
Ahnak
Ahr
Ahrr
Aida
Aif1l
Aifm1
Aifm2
Aig1
Aim1
Aimp1
Aimp2
Aip
Ajuba
Ak1
Ak2
Ak3
Ak5
Akap10
Akap11
Akap12
Akap13
Akap17b
Akap2
Akap3
Akap6
Akap8l
Akap9
Akirin1
Akirin2
Akna
Aknad1
Akr1b10
Akr1b3
Akr1b7
Akr1b8
Akr1c12
Akr1c14
Akr7a5
Akt1s1
Alas1
Alcam
Aldh16a1
Aldh18a1
Aldh1a1
Aldh1a2
Aldh1l1
Aldh1l2
Aldh3a1
Aldh3b1
Aldh3b2
Aldh6a1
Aldh9a1
Aldoa
Alg1
Alg10b
Alg11
Alg12
Alg13
Alg2
Alg3
Alg5
Alg6
Alg9
Alkbh1
Alkbh2
Alkbh3
Alkbh5
Alkbh6
Alkbh7
Alms1
Alox5
Alox5ap
Alpk1
Alpk2
Alpl
Als2
Als2cl
Alx1
Alx3
Amdhd2
Amfr
Amigo1
Ammecr1l
Amn1
Amotl1
Amotl2
Ampd2
Amz1
Amz2
Anapc13
Anapc15
Anapc16
Anapc2
Anapc4
Anapc5
Anapc7
Ang2
Angpt1
Angpt4
Angptl2
Angptl4
Angptl6
Ank
Ank1
Ank2
Ank3
Ankhd1
Ankib1
Ankle1
Ankle2
Ankmy2
Ankra2
Ankrd1
Ankrd10
Ankrd11
Ankrd13a
Ankrd13b
Ankrd13c
Ankrd13d
Ankrd16
Ankrd2
Ankrd27
Ankrd28
Ankrd29
Ankrd32
Ankrd33b
Ankrd34a
Ankrd35
Ankrd42
Ankrd44
Ankrd50
Ankrd52
Ankrd6
Ankrd9
Anks3
Anks6
Anln
Ano8
Anp32a
Anp32e
Anpep
Antxr1
Antxr2
Anxa1
Anxa2
Anxa3
Anxa4
Anxa5
Anxa6
Anxa7
Anxa8
Anxa9
Aoc3
Ap1b1
Ap1g1
Ap1m1
Ap1s1
Ap1s2
Ap2a1
Ap2s1
Ap3b1
Ap3d1
Ap3m1
Ap3m2
Ap3s1
Ap3s2
Ap4b1
Ap4m1
Ap5b1
Ap5m1
Ap5s1
Ap5z1
Apaf1
Apba1
Apba3
Apbb1
Apbb1ip
Apbb2
Apbb3
Apc
Apc2
Apeh
Apex1
Apip
Apitd1
Aplf
Apln
Aplp1
Aplp2
Apmap
Apobec3
Apobr
Apod
Apoe
Apoh
Apol10b
Apol6
Apol7a
Apol7b
Apol7e
Apol9a
Apol9b
Apold1
Apopt1
App
Appbp2
Appl1
Appl2
Aprt
Aqp1
Aqp5
Aqp7
Aqr
Ar
Arap2
Arc
Areg
Arf1
Arf2
Arf4
Arf5
Arfgap1
Arfgap2
Arfgap3
Arfgef1
Arfgef2
Arfip1
Arfrp1
Arhgap1
Arhgap10
Arhgap11a
Arhgap12
Arhgap17
Arhgap18
Arhgap19
Arhgap21
Arhgap22
Arhgap24
Arhgap28
Arhgap31
Arhgap33
Arhgap36
Arhgap39
Arhgap42
Arhgap5
Arhgap6
Arhgdia
Arhgdib
Arhgef1
Arhgef10
Arhgef10l
Arhgef11
Arhgef15
Arhgef17
Arhgef19
Arhgef2
Arhgef25
Arhgef3
Arhgef39
Arhgef40
Arhgef5
Arhgef6
Arhgef7
Arid2
Arid4b
Arid5a
Arid5b
Arih1
Arih2
Arl10
Arl14ep
Arl15
Arl2bp
Arl3
Arl4c
Arl5a
Arl5b
Arl6ip1
Arl6ip5
Arl8a
Arl8b
Armc1
Armc2
Armc7
Armc8
Armcx1
Armcx3
Armcx5
Arnt2
Arntl
Arntl2
Arpc1a
Arpc1b
Arpc2
Arpc3
Arpc4
Arpc5l
Arpp21
Arrb1
Arrdc1
Arrdc2
Arrdc3
Arrdc4
Arsa
Arsb
Arsg
Arsi
Arsj
Arv1
Arvcf
Arxes2
Asah1
Asap2
Asap3
Asb1
Asb13
Asb15
Asb3
Asb4
Asb6
Ascc1
Ascc2
Ascc3
Asf1a
Asf1b
Ash2l
Asic1
Asl
Asna1
Asns
Asnsd1
Aspa
Asph
Aspm
Aspscr1
Ass1
Astn2
Asun
Asxl1
Asxl2
Atad1
Atad2
Atad2b
Atad3a
Atad5
Atat1
Ate1
Atf1
Atf2
Atf3
Atf4
Atf5
Atf6
Atf6b
Atf7ip
Atg10
Atg12
Atg13
Atg14
Atg16l1
Atg16l2
Atg2a
Atg2b
Atg3
Atg4b
Atg9a
Athl1
Atic
Atl3
Atm
Atmin
Atn1
Atoh8
Atox1
Atp10a
Atp10d
Atp11a
Atp11b
Atp11c
Atp13a1
Atp13a2
Atp13a3
Atp1a1
Atp1a2
Atp1b3
Atp2a1
Atp2a2
Atp2a3
Atp2b1
Atp2b4
Atp2c1
Atp5a1
Atp5c1
Atp5e
Atp5g1
Atp5g3
Atp5j
Atp5j2
Atp5k
Atp5l
Atp5o
Atp6ap1
Atp6ap2
Atp6v0a1
Atp6v0a2
Atp6v0a4
Atp6v0b
Atp6v0c
Atp6v0d1
Atp6v1a
Atp6v1b2
Atp6v1c1
Atp6v1d
Atp6v1e1
Atp6v1f
Atp6v1g1
Atp6v1g2
Atp6v1h
Atp7a
Atp8b2
Atp8b3
Atp8b4
Atp9a
Atp9b
Atpbd4
Atpif1
Atr
Atrn
Atrnl1
Atrx
Atxn1
Atxn10
Atxn1l
Atxn2
Atxn2l
Atxn3
Atxn7
Atxn7l3
Atxn7l3b
Auh
Aup1
Aurka
Aurkaip1
Aurkb
Auts2
Aven
Avil
Avl9
Avpi1
Axin1
Axl
Azi2
Azin1
B130024G19Rik
B230118H07Rik
B230120H23Rik
B230208H11Rik
B230216G23Rik
B230217O12Rik
B230219D22Rik
B3galnt1
B3galnt2
B3galt4
B3galtl
B3gat3
B3gnt1
B3gnt2
B3gnt3
B3gnt9
B430319G15Rik
B4galnt1
B4galnt2
B4galnt4
B4galt2
B4galt3
B4galt4
B4galt5
B4galt6
B930041F14Rik
BC003331
BC003965
BC005537
BC005624
BC005764
BC016423
BC018242
BC018507
BC020402
BC023829
BC024582
BC024978
BC026590
BC027231
BC028528
BC029214
BC029722
BC030307
BC030336
BC030867
BC031181
BC031361
BC039771
BC048403
BC051019
BC051142
BC055324
BC065397
BC100451
Baalc
Babam1
Bace1
Bach1
Bach2
Bad
Bag2
Bag3
Bag5
Bag6
Bahcc1
Bai2
Baiap2
Bak1
Bank1
Banp
Bap1
Bard1
Basp1
Bax
Baz1a
Baz1b
Bbc3
Bbip1
Bbs1
Bbs2
Bbs5
Bbs9
Bbx
Bc1
Bcam
Bcan
Bcap29
Bcas2
Bcas3
Bcat1
Bcat2
Bche
Bckdha
Bckdhb
Bckdk
Bcl2
Bcl2l1
Bcl2l12
Bcl2l13
Bcl2l2
Bcl3
Bcl6
Bcl7a
Bcl7b
Bcl9
Bcl9l
Bco2
Bcor
Bcorl1
Bcr
Bdh2
Bdnf
Bdp1
Becn1
Bend3
Bend5
Bend6
Bet1
Bex1
Bfar
Bfsp1
Bglap2
Bgn
Bhlhb9
Bhlhe22
Bhlhe41
Bicc1
Bicd2
Birc2
Birc3
Birc5
Birc6
Blm
Blmh
Bloc1s1
Bloc1s2a
Bloc1s3
Bloc1s4
Bloc1s6
Blvra
Blvrb
Blzf1
Bmf
Bmp1
Bmp4
Bmp5
Bmp6
Bmp8a
Bmpr1a
Bmpr1b
Bmpr2
Bnc1
Bnc2
Bnip1
Bnip2
Bnip3
Bnip3l
Bod1
Bod1l
Bok
Bola1
Bola3
Bora
Bpgm
Bpnt1
Bptf
Braf
Brca1
Brca2
Brd1
Brd2
Brd3
Brd4
Brd8
Brd9
Brdt
Bre
Brf2
Bri3
Bri3bp
Brip1
Brix1
Brk1
Brox
Brpf3
Brsk1
Brwd1
Brwd3
Bscl2
Bsdc1
Bsg
Bsn
Bst2
Btaf1
Btbd11
Btbd2
Btbd6
Btbd7
Btd
Btf3
Btf3l4
Btg1
Btg2
Btg4
Btnl5
Btrc
Bub1
Bub1b
Bub3
Bud31
Bves
Bzw1
Bzw2
C030006K11Rik
C030016D13Rik
C030046E11Rik
C130026I21Rik
C130074G19Rik
C1d
C1galt1
C1galt1c1
C1qbp
C1ql3
C1qtnf1
C1qtnf3
C1qtnf6
C1rl
C230081A13Rik
C230091D08Rik
C2cd2
C2cd2l
C2cd3
C2cd5
C330006A16Rik
C330007P06Rik
C330021F23Rik
C330027C09Rik
C430049B03Rik
C4a
C5ar1
C77080
C78339
C920021L13Rik
Caap1
Cab39
Cabin1
Cables2
Cabp1
Cabp4
Cacna1a
Cacna1b
Cacna1c
Cacna1g
Cacna1h
Cacna1s
Cacna2d1
Cacnb1
Cacnb2
Cacnb4
Cacng1
Cacng7
Cacng8
Cactin
Cacul1
Cadm1
Cadm2
Cadm4
Calcoco1
Calcrl
Cald1
Calhm2
Calm1
Calm2
Calm3
Calml4
Calr
Camk1
Camk1d
Camk1g
Camk2a
Camk2b
Camk2d
Camk2g
Camk2n1
Camk2n2
Camk4
Camkk1
Camkmt
Camp
Camsap1
Camsap2
Camsap3
Camta2
Cand1
Cand2
Canx
Cap2
Capg
Capn1
Capn10
Capn5
Capn6
Capn9
Capns1
Capns2
Caprin1
Caprin2
Caps2
Capza1
Capza2
Capzb
Car12
Car13
Car3
Car5b
Car6
Car8
Card10
Card6
Carhsp1
Carkd
Carm1
Carns1
Cars
Cars2
Casc3
Casc4
Casc5
Casd1
Cask
Casp1
Casp12
Casp4
Casp6
Casp7
Casp8
Casp8ap2
Casp9
Casq2
Cass4
Cast
Casz1
Cat
Catsperd
Cav1
Cav2
Cbfb
Cblb
Cbll1
Cbln1
Cbr2
Cbr4
Cbwd1
Cbx1
Cbx2
Cbx3
Cbx4
Cbx5
Cbx6
Cbx8
Cc2d1a
Cc2d2a
Ccar1
Ccbe1
Ccbl2
Ccbp2
Ccdc101
Ccdc102a
Ccdc104
Ccdc107
Ccdc109b
Ccdc115
Ccdc117
Ccdc121
Ccdc124
Ccdc127
Ccdc130
Ccdc134
Ccdc136
Ccdc137
Ccdc138
Ccdc14
Ccdc151
Ccdc155
Ccdc157
Ccdc159
Ccdc162
Ccdc163
Ccdc170
Ccdc174
Ccdc18
Ccdc22
Ccdc24
Ccdc28a
Ccdc28b
Ccdc3
Ccdc30
Ccdc34
Ccdc37
Ccdc41
Ccdc43
Ccdc47
Ccdc50
Ccdc51
Ccdc53
Ccdc55
Ccdc58
Ccdc59
Ccdc6
Ccdc65
Ccdc71
Ccdc74a
Ccdc77
Ccdc8
Ccdc80
Ccdc82
Ccdc84
Ccdc85b
Ccdc86
Ccdc88a
Ccdc88b
Ccdc88c
Ccdc9
Ccdc90a
Ccdc91
Ccdc92
Ccdc93
Ccdc97
Cchcr1
Ccl2
Ccl25
Ccl27a
Ccl5
Ccl7
Ccl9
Ccm2
Ccna2
Ccnb1
Ccnb1ip1
Ccnb2
Ccnc
Ccnd1
Ccnd2
Ccnd3
Ccne1
Ccne2
Ccnf
Ccng1
Ccnh
Ccni
Ccnj
Ccnk
Ccnl1
Ccnt1
Ccny
Ccp110
Ccpg1
Ccrn4l
Ccs
Ccsap
Ccser1
Cct2
Cct3
Cct4
Cct5
Cct6a
Cct7
Cct8
Cd109
Cd14
Cd151
Cd164
Cd177
Cd1d1
Cd200r4
Cd209c
Cd248
Cd24a
Cd274
Cd276
Cd28
Cd2ap
Cd2bp2
Cd300lb
Cd302
Cd320
Cd34
Cd36
Cd40
Cd44
Cd47
Cd53
Cd55
Cd59a
Cd63
Cd68
Cd74
Cd81
Cd82
Cd9
Cd93
Cd99l2
Cda
Cdan1
Cdc123
Cdc20
Cdc25b
Cdc25c
Cdc26
Cdc37l1
Cdc40
Cdc42
Cdc42bpa
Cdc42bpg
Cdc42ep2
Cdc42ep3
Cdc42ep4
Cdc42se1
Cdc42se2
Cdc45
Cdc5l
Cdc6
Cdc7
Cdc73
Cdca2
Cdca3
Cdca5
Cdca8
Cdh10
Cdh15
Cdh17
Cdh2
Cdh22
Cdh23
Cdh6
Cdhr1
Cdhr3
Cdip1
Cdipt
Cdk1
Cdk13
Cdk16
Cdk17
Cdk19
Cdk2
Cdk2ap1
Cdk2ap2
Cdk4
Cdk5
Cdk5rap2
Cdk5rap3
Cdk7
Cdk9
Cdkal1
Cdkl2
Cdkl5
Cdkn1a
Cdkn1c
Cdkn2a
Cdkn2b
Cdkn2c
Cdkn2d
Cdkn3
Cdo1
Cdon
Cdpf1
Cdr2l
Cdrt4
Cds2
Cdsn
Cdv3
Cdyl
Cebpa
Cebpb
Cebpd
Cebpg
Cela1
Celf1
Celf2
Celf4
Cenpa
Cenpb
Cenpc1
Cenpe
Cenpf
Cenph
Cenpi
Cenpj
Cenpk
Cenpl
Cenpm
Cenpn
Cenpo
Cenpp
Cenpt
Cenpv
Cenpw
Cep110
Cep120
Cep128
Cep135
Cep152
Cep164
Cep170b
Cep192
Cep250
Cep44
Cep55
Cep57
Cep57l1
Cep63
Cep68
Cep70
Cep72
Cep78
Cep85
Cep85l
Cep89
Cep95
Cept1
Cercam
Cerk
Cers2
Cers4
Cers5
Cers6
Ces1a
Ces1f
Ces1g
Ces2g
Cetn2
Cetn3
Cetn4
Cfdp1
Cfl1
Cfl2
Cflar
Cftr
Cggbp1
Cgnl1
Cgref1
Cgrrf1
Chac1
Chac2
Chadl
Chaf1a
Chaf1b
Chchd1
Chchd10
Chchd2
Chchd3
Chchd4
Chd1
Chd1l
Chd2
Chd3
Chd4
Chd5
Chd6
Chd7
Chd9
Chek1
Cherp
Chfr
Chic1
Chic2
Chid1
Chka
Chm
Chml
Chmp1a
Chmp1b
Chmp2a
Chmp2b
Chmp4b
Chmp5
Chmp6
Chmp7
Chodl
Chordc1
Chp1
Chpf
Chpf2
Chrac1
Chrd
Chrdl1
Chrdl2
Chrna1
Chrnb1
Chrnd
Chrng
Chst1
Chst10
Chst11
Chst12
Chst13
Chst14
Chst15
Chst2
Chst3
Chsy3
Chtf18
Chtf8
Chtop
Chuk
Ciapin1
Cib1
Cib2
Cic
Cilp
Cirbp
Cirh1a
Cisd1
Cisd3
Cit
Cited2
Ckap2
Ckap2l
Ckap4
Ckap5
Ckb
Ckm
Cks2
Clasp1
Clasp2
Clca4
Clca5
Clca6
Clcn2
Clcn3
Clcn4-2
Clcn5
Clcn6
Clcn7
Cldn1
Cldn12
Cldn15
Cldn25
Clec1a
Clec2d
Clec4d
Clhc1
Clic1
Clic5
Clint1
Clip1
Clip2
Clip3
Clk3
Clmp
Cln5
Cln6
Cln8
Clns1a
Clock
Clpb
Clpp
Clptm1
Clptm1l
Clspn
Clstn1
Clta
Cltb
Cltc
Clu
Clvs1
Clybl
Cmah
Cmas
Cmbl
Cmc1
Cmc2
Cmip
Cmklr1
Cml3
Cmpk1
Cmpk2
Cmss1
Cmtm3
Cmtm4
Cmtm6
Cmtm7
Cmya5
Cnbd2
Cnbp
Cndp2
Cnih
Cnih2
Cnih4
Cnksr1
Cnksr3
Cnn1
Cnn2
Cnnm2
Cnnm3
Cnnm4
Cnot2
Cnot6l
Cnot7
Cnot8
Cnp
Cnppd1
Cnpy2
Cnpy4
Cnr1
Cnrip1
Cnst
Cntln
Cntn3
Cntnap3
Cntnap4
Cntnap5a
Cntrob
Coa6
Coasy
Cobl
Cobll1
Coch
Cog1
Cog2
Cog3
Cog4
Cog6
Cog7
Coil
Col11a2
Col15a1
Col16a1
Col17a1
Col1a1
Col1a2
Col20a1
Col22a1
Col27a1
Col28a1
Col2a1
Col3a1
Col4a1
Col4a3bp
Col4a4
Col4a5
Col4a6
Col5a1
Col5a2
Col5a3
Col6a1
Col6a2
Col6a3
Col6a4
Col7a1
Col8a1
Col9a2
Col9a3
Colec10
Colec12
Commd1
Commd3
Commd6
Commd7
Comp
Comt
Comtd1
Copb2
Cope
Copg1
Copg2
Coprs
Cops2
Cops6
Cops7a
Cops8
Copz1
Copz2
Coq10a
Coq10b
Coq2
Coq3
Coq4
Coq5
Coq6
Coq7
Coq9
Coro1c
Coro2a
Coro2b
Coro7
Cotl1
Cox10
Cox11
Cox15
Cox17
Cox19
Cox20
Cox5a
Cox5b
Cox6a1
Cox6a2
Cox6b1
Cox6c
Cox7a2l
Cox8a
Cox8b
Cp
Cpa6
Cpd
Cpe
Cpeb1
Cpeb2
Cpeb3
Cpeb4
Cped1
Cplx2
Cpm
Cpne1
Cpne2
Cpne4
Cpne5
Cpne8
Cpox
Cpped1
Cpsf2
Cpsf6
Cpt1a
Cpt1c
Cpt2
Cr1l
Crabp2
Crat
Crcp
Creb1
Creb3l1
Creb5
Crebbp
Crebl2
Crebrf
Crebzf
Creg1
Creld2
Crem
Crhbp
Crim1
Crip1
Crip2
Crispld2
Crkl
Crlf1
Crlf3
Crls1
Crnkl1
Crocc
Crot
Crtam
Crtap
Crtc1
Crtc3
Cry1
Cryab
Crybg3
Cryl1
Cryzl1
Cs
Csad
Csda
Csdc2
Csde1
Cse1l
Csf1
Csf1r
Csf2ra
Csgalnact2
Csk
Csmd1
Csmd3
Csnk1a1
Csnk1d
Csnk1e
Csnk1g3
Csnk2a1
Csnk2a2
Csnk2b
Cspg4
Csrnp1
Csrp1
Csrp2
Cst3
Cstb
Cstf2t
Cstf3
Ctage5
Ctc1
Ctcf
Ctdnep1
Ctdp1
Ctdsp2
Ctdspl2
Cth
Ctif
Ctnna1
Ctnnal1
Ctnnbip1
Ctnnd1
Ctnnd2
Ctns
Ctps
Ctps2
Ctr9
Ctsa
Ctsb
Ctsc
Ctsd
Ctsh
Ctsk
Ctsl
Ctso
Ctsz
Cttn
Cttnbp2
Cttnbp2nl
Cuedc1
Cul1
Cul2
Cul4a
Cul5
Cul7
Cul9
Cutc
Cux1
Cwc15
Cwc22
Cwc25
Cwc27
Cx3cl1
Cxadr
Cxcl1
Cxcl10
Cxcl12
Cxcl13
Cxcl5
Cxcl9
Cxcr1
Cxcr2
Cxcr6
Cxx1a
Cxx1b
Cxx1c
Cxxc5
Cyb561
Cyb5b
Cyb5r1
Cyb5r2
Cyb5r3
Cyb5r4
Cybasc3
Cyc1
Cyfip1
Cyfip2
Cygb
Cyhr1
Cylc1
Cyld
Cyp1b1
Cyp20a1
Cyp27a1
Cyp27b1
Cyp2ab1
Cyp2b13
Cyp2c44
Cyp2d22
Cyp39a1
Cyp4f13
Cyp4f14
Cyp4f16
Cyp4f40
Cyp4f41-ps
Cyp4v3
Cyp51
Cyp7b1
Cyr61
Cys1
Cystm1
Cyth1
Cyth2
D030025P21Rik
D030028A08Rik
D030056L22Rik
D10Jhu81e
D10Wsu102e
D10Wsu52e
D130040H23Rik
D14Abb1e
D15Ertd621e
D16Ertd472e
D17H6S53E
D19Bwg1357e
D19Ertd737e
D1Ertd622e
D230025D16Rik
D2Wsu81e
D2hgdh
D330022K07Rik
D330041H03Rik
D330045A20Rik
D330050G23Rik
D330050I16Rik
D3Bwg0562e
D3Ertd751e
D430020J02Rik
D430042O09Rik
D5Ertd579e
D5Ertd605e
D630037F22Rik
D630045J12Rik
D630045M09Rik
D830031N03Rik
D8Ertd738e
D8Ertd82e
D930015M05Rik
D930048N14Rik
Daam1
Dab2
Dach1
Dach2
Dact2
Dact3
Dad1
Dag1
Dagla
Dak
Dancr
Dap
Dapk1
Dapk2
Dapk3
Dapp1
Dars
Dars2
Daxx
Dazap1
Dazap2
Dbc1
Dbi
Dbn1
Dbndd2
Dbnl
Dbt
Dcaf10
Dcaf11
Dcaf12
Dcaf13
Dcaf15
Dcaf17
Dcaf5
Dcaf6
Dcaf7
Dcakd
Dcbld1
Dcbld2
Dcc
Dck
Dclk2
Dclk3
Dclre1a
Dcn
Dcp1a
Dcp2
Dctd
Dctn1
Dctn2
Dctpp1
Dcun1d1
Dcun1d3
Dcun1d4
Dcun1d5
Dcxr
Dda1
Ddah1
Ddah2
Ddb1
Ddb2
Ddhd1
Ddi2
Ddit3
Ddit4l
Ddost
Ddr1
Ddr2
Ddrgk1
Ddt
Ddx1
Ddx10
Ddx11
Ddx17
Ddx18
Ddx19b
Ddx20
Ddx21
Ddx23
Ddx24
Ddx27
Ddx28
Ddx31
Ddx39
Ddx39b
Ddx3x
Ddx5
Ddx50
Ddx52
Ddx54
Ddx56
Ddx6
Ddx60
Deaf1
Deb1
Decr1
Def6
Def8
Degs1
Dek
Dennd1a
Dennd1b
Dennd2a
Dennd2d
Dennd4a
Dennd5a
Dennd6a
Denr
Depdc1a
Depdc1b
Depdc5
Depdc7
Deptor
Dera
Derl1
Derl2
Desi1
Desi2
Det1
Dffa
Dgat2
Dgcr14
Dgcr2
Dgcr8
Dgkd
Dgkg
Dgkh
Dgkz
Dguok
Dhcr24
Dhcr7
Dhdds
Dhfr
Dhps
Dhrs1
Dhrs11
Dhrs13
Dhrs3
Dhrs4
Dhrs7
Dhrs9
Dhtkd1
Dhx15
Dhx16
Dhx30
Dhx32
Dhx33
Dhx34
Dhx35
Dhx36
Dhx37
Dhx38
Dhx40
Dhx57
Dhx58
Diablo
Diap1
Diap2
Diap3
Dicer1
Dido1
Diexf
Dimt1
Dio2
Dio3
Dio3os
Dip2a
Dip2b
Dip2c
Diras1
Diras2
Dirc2
Dis3
Dis3l
Dis3l2
Disp1
Disp2
Dixdc1
Dkc1
Dkk2
Dkk3
Dlat
Dlc1
Dld
Dleu2
Dlg1
Dlg2
Dlg3
Dlg4
Dlg5
Dlgap2
Dlgap4
Dlgap5
Dlk2
Dll1
Dlst
Dlx1
Dlx1as
Dlx3
Dlx5
Dlx6
Dlx6as1
Dmpk
Dmrt1
Dmrt2
Dmrta1
Dmrta2
Dmtf1
Dmwd
Dmxl1
Dmxl2
Dna2
Dnahc7b
Dnaja2
Dnaja3
Dnaja4
Dnajb11
Dnajb12
Dnajb2
Dnajb5
Dnajb6
Dnajb9
Dnajc1
Dnajc11
Dnajc12
Dnajc13
Dnajc14
Dnajc15
Dnajc16
Dnajc2
Dnajc21
Dnajc25
Dnajc28
Dnajc3
Dnajc4
Dnajc5
Dnajc7
Dnajc8
Dnajc9
Dnalc4
Dnase1l1
Dnase1l3
Dner
Dnlz
Dnm1
Dnm1l
Dnm2
Dnm3os
Dnmbp
Dnmt1
Dnmt3l
Dnph1
Dnttip1
Dnttip2
Doc2a
Dock1
Dock11
Dock3
Dock4
Dock5
Dock6
Dock8
Dock9
Dohh
Dok1
Dok4
Dolpp1
Dom3z
Dopey2
Dos
Dpcd
Dpep1
Dpf1
Dpf2
Dph2
Dph3
Dph5
Dpm1
Dpm2
Dpp3
Dpp7
Dpp8
Dpp9
Dppa2
Dpy19l1
Dpy19l3
Dpy30
Dpyd
Dpysl2
Dpysl5
Dr1
Dram1
Dram2
Drap1
Draxin
Drg1
Drg2
Drosha
Dsc1
Dsc2
Dscam
Dscc1
Dscr3
Dse
Dsel
Dsn1
Dst
Dstyk
Dtd2
Dtl
Dtna
Dtnbp1
Dtx2
Dtx3
Dtx4
Dtymk
Duoxa1
Dus1l
Dus4l
Dusp1
Dusp10
Dusp11
Dusp13
Dusp14
Dusp16
Dusp18
Dusp19
Dusp2
Dusp22
Dusp27
Dusp3
Dusp4
Dusp5
Dusp6
Dusp7
Dusp8
Dusp9
Dut
Dvl2
Dvl3
Dym
Dynap
Dync1i1
Dync1i2
Dync1li1
Dync2h1
Dync2li1
Dynll1
Dynlt1a
Dynlt1b
Dynlt1f
Dyrk1a
Dyrk1b
Dyrk2
Dyrk3
Dyrk4
Dysf
Dzank1
Dzip1
Dzip1l
E030003E18Rik
E030024N20Rik
E130012A19Rik
E130308A19Rik
E230008N13Rik
E230016K23Rik
E230016M11Rik
E2f1
E2f2
E2f3
E2f4
E2f5
E2f6
E2f7
E2f8
E330011O21Rik
E330013P04Rik
E430025E21Rik
Eaf1
Eapp
Ears2
Ebag9
Ebf1
Ebf4
Ebna1bp2
Ebp
Ebpl
Ecd
Ece1
Ece2
Ech1
Echdc1
Echdc2
Echdc3
Ecm1
Ecm2
Ect2
Eda
Eda2r
Edc3
Edc4
Edem1
Edem2
Edem3
Edf1
Edn1
Eea1
Eef1a1
Eef1b2
Eef1d
Eef1e1
Eef1g
Eef2
Eef2k
Eefsec
Efcab1
Efcab11
Efcab14
Efcab7
Efemp1
Efemp2
Efha1
Efha2
Efhd2
Efna2
Efna5
Efnb1
Efnb2
Efr3a
Efr3b
Efs
Egfr
Egln1
Egln3
Egr1
Egr2
Ehbp1
Ehd1
Ehd2
Ehd3
Ehd4
Ehf
Ehhadh
Ehmt2
Eid1
Eid2b
Eid3
Eif1
Eif1a
Eif1ad
Eif1ax
Eif1b
Eif2a
Eif2ak2
Eif2ak3
Eif2ak4
Eif2b2
Eif2b3
Eif2b4
Eif2b5
Eif2c2
Eif2c4
Eif2d
Eif2s1
Eif2s2
Eif3a
Eif3c
Eif3d
Eif3e
Eif3f
Eif3g
Eif3h
Eif3l
Eif3m
Eif4a1
Eif4a2
Eif4a3
Eif4e
Eif4e2
Eif4e3
Eif4ebp1
Eif4ebp2
Eif4ebp3
Eif4enif1
Eif4g1
Eif4g2
Eif4g3
Eif4h
Eif5
Eif5a2
Elac1
Elac2
Elavl1
Elavl2
Elf1
Elf2
Elf4
Elfn1
Elk1
Elk3
Elk4
Ell
Ell2
Elmo1
Elmo2
Elmod2
Elmod3
Elmsan1
Elovl1
Elovl3
Elovl4
Elovl5
Elovl6
Elovl7
Elp3
Elp4
Elp5
Emb
Emc1
Emc10
Emc2
Emc4
Emc6
Emc7
Eme1
Eme2
Emid1
Emilin1
Emilin2
Eml1
Eml2
Eml3
Eml4
Eml5
Eml6
Emp1
Emp2
Emp3
Emx2
Emx2os
En1
Enah
Enc1
Endod1
Endog
Endov
Eng
Enkd1
Enkur
Eno1
Eno2
Enox1
Enox2
Enpep
Enpp1
Enpp2
Enpp3
Enpp5
Ensa
Entpd5
Entpd6
Entpd7
Eny2
Eogt
Ep300
Epb4.1
Epb4.1l1
Epb4.1l2
Epb4.1l3
Epb4.1l4a
Epb4.1l4b
Epb4.1l5
Epb4.9
Epc1
Epc2
Epg5
Epgn
Epha2
Epha3
Epha7
Ephb4
Ephb6
Ephx2
Epm2aip1
Epn1
Epn2
Eppk1
Eprs
Eps15
Eps15l1
Eps8
Eps8l2
Ept1
Erap1
Erbb2
Erbb2ip
Erbb3
Erc1
Ercc1
Ercc3
Ercc6
Ercc6l
Erdr1
Ereg
Erf
Ergic2
Ergic3
Eri2
Eri3
Erich1
Erlec1
Erlin1
Erlin2
Ermp1
Ern1
Ero1l
Ero1lb
Erp44
Errfi1
Esco1
Esco2
Esd
Esf1
Espl1
Esr1
Esyt1
Esyt2
Esyt3
Etaa1
Etf1
Etfa
Etfb
Etfdh
Etl4
Etnk2
Etohi1
Ets1
Ets2
Etv3
Etv4
Etv5
Etv6
Eva1b
Eva1c
Evc
Evi5
Evi5l
Evl
Ewsr1
Exd1
Exd2
Exo1
Exo5
Exoc1
Exoc2
Exoc3
Exoc3l
Exoc4
Exoc5
Exoc7
Exoc8
Exosc1
Exosc4
Exosc5
Exosc6
Exosc8
Exph5
Ext1
Ext2
Extl1
Extl2
Extl3
Eya1
Eya2
Eya4
Ezh2
Ezr
F11r
F2r
F3
F730043M19Rik
F830016B08Rik
Fabp3
Fabp4
Fabp7
Fads2
Fads3
Faf1
Faf2
Fah
Fahd1
Faim
Fam101b
Fam102a
Fam102b
Fam104a
Fam105a
Fam105b
Fam107b
Fam108b
Fam108c
Fam109a
Fam110a
Fam110c
Fam111a
Fam114a1
Fam114a2
Fam115a
Fam115c
Fam117a
Fam118a
Fam118b
Fam120aos
Fam122a
Fam122b
Fam124a
Fam126a
Fam129a
Fam129b
Fam129c
Fam131b
Fam132a
Fam132b
Fam133b
Fam134a
Fam134b
Fam135a
Fam135b
Fam13a
Fam13b
Fam149a
Fam149b
Fam150a
Fam151b
Fam160a1
Fam160b2
Fam161a
Fam162a
Fam168a
Fam168b
Fam169b
Fam171a1
Fam171b
Fam172a
Fam173a
Fam173b
Fam175a
Fam178a
Fam179b
Fam186b
Fam188a
Fam188b
Fam189a2
Fam189b
Fam192a
Fam193a
Fam193b
Fam195a
Fam195b
Fam198b
Fam199x
Fam19a5
Fam203a
Fam20a
Fam20b
Fam20c
Fam21
Fam210a
Fam211a
Fam211b
Fam212a
Fam214a
Fam216a
Fam217b
Fam219a
Fam219b
Fam220a
Fam229b
Fam26e
Fam26f
Fam32a
Fam3a
Fam3c
Fam43a
Fam45a
Fam46a
Fam46b
Fam49a
Fam49b
Fam50a
Fam53a
Fam53b
Fam53c
Fam57a
Fam58b
Fam5c
Fam60a
Fam63a
Fam63b
Fam64a
Fam65b
Fam69a
Fam69b
Fam72a
Fam73a
Fam73b
Fam76b
Fam83d
Fam84a
Fam84b
Fam92a
Fam96a
Fam96b
Fam98a
Fam98b
Fan1
Fanca
Fancb
Fancc
Fancd2
Fance
Fancf
Fancg
Fanci
Fancl
Fancm
Fank1
Fap
Far1
Farp1
Farp2
Fars2
Farsa
Farsb
Fas
Fastkd1
Fastkd2
Fastkd5
Fat1
Fat4
Faxc
Fbl
Fblim1
Fbln2
Fbln5
Fbn1
Fbxl12
Fbxl16
Fbxl17
Fbxl2
Fbxl20
Fbxl22
Fbxl3
Fbxl4
Fbxl5
Fbxl6
Fbxl7
Fbxl8
Fbxo10
Fbxo11
Fbxo17
Fbxo18
Fbxo2
Fbxo25
Fbxo27
Fbxo28
Fbxo3
Fbxo32
Fbxo36
Fbxo38
Fbxo4
Fbxo42
Fbxo44
Fbxo45
Fbxo48
Fbxo5
Fbxo6
Fbxo7
Fbxo8
Fbxo9
Fbxw11
Fbxw17
Fbxw2
Fbxw4
Fbxw7
Fbxw8
Fbxw9
Fcamr
Fcf1
Fcgrt
Fcho2
Fchsd2
Fdft1
Fdps
Fdxacb1
Fdxr
Fech
Fem1a
Fem1b
Fem1c
Fen1
Fert2
Fes
Fez1
Fgd1
Fgd3
Fgd4
Fgd6
Fgf10
Fgf14
Fgf17
Fgf21
Fgfbp1
Fgfbp3
Fgfr1
Fgfrl1
Fh1
Fhdc1
Fhl1
Fhl2
Fhl3
Fhod1
Fibcd1
Fibin
Fibp
Ficd
Fig4
Figf
Fignl1
Fignl2
Filip1
Filip1l
Fip1l1
Fis1
Fiz1
Fkbp10
Fkbp11
Fkbp14
Fkbp15
Fkbp2
Fkbp3
Fkbp4
Fkbp5
Fkbp9
Fkbpl
Fkrp
Fktn
Flcn
Fli1
Flii
Flnc
Flot1
Flot2
Flrt1
Flrt2
Flrt3
Flt4
Fmn1
Fmnl1
Fmnl2
Fmnl3
Fmo1
Fmo5
Fmod
Fn1
Fn3krp
Fnbp1
Fnbp1l
Fnbp4
Fndc3a
Fndc3b
Fndc4
Fnip1
Fnip2
Fnta
Focad
Folr1
Fos
Fosb
Fosl1
Fosl2
Foxc1
Foxc2
Foxd1
Foxf1
Foxf2
Foxg1
Foxj2
Foxj3
Foxk2
Foxm1
Foxn2
Foxn3
Foxo1
Foxo3
Foxo4
Foxp1
Foxp2
Foxq1
Foxred2
Foxs1
Fpgs
Fpgt
Fras1
Frat2
Frg1
Frk
Frmd4a
Frmd4b
Frmd6
Frmd8
Frrs1
Frs2
Frzb
Fscn1
Fsd1
Fsd1l
Fstl1
Fth1
Ftl1
Fto
Ftsj1
Ftsj2
Ftsj3
Ftsjd1
Fubp1
Fuca1
Fuk
Fundc1
Fundc2
Fuom
Furin
Fus
Fut1
Fut10
Fut4
Fut8
Fut9
Fxn
Fxr1
Fxr2
Fxyd5
Fyb
Fyco1
Fyn
Fyttd1
Fzd1
Fzd2
Fzd3
Fzd4
Fzd6
Fzd7
Fzd8
Fzr1
G0s2
G2e3
G3bp2
G6pc3
G6pdx
Gaa
Gab1
Gab2
Gabarap
Gabarapl1
Gabarapl2
Gabbr1
Gabpb1
Gabpb2
Gabra4
Gabrb1
Gadd45a
Gadd45b
Gadd45g
Gak
Gal3st1
Gal3st4
Gale
Galk1
Galk2
Galm
Galns
Galnt1
Galnt10
Galnt12
Galnt13
Galnt15
Galnt18
Galnt2
Galnt3
Galnt4
Galnt9
Galntl6
Galt
Gamt
Ganc
Gap43
Gapdh
Gapvd1
Gar1
Garem
Gareml
Gars
Gas1
Gas2
Gas2l3
Gas5
Gas6
Gata2
Gata3
Gatad1
Gatc
Gatsl2
Gatsl3
Gba
Gba2
Gbe1
Gbf1
Gbp1
Gbp10
Gbp11
Gbp2
Gbp3
Gbp6
Gbp8
Gbp9
Gca
Gcat
Gcc1
Gcc2
Gcfc2
Gclc
Gcn1l1
Gcnt1
Gcnt2
Gcnt4
Gcsh
Gda
Gdap1l1
Gdap2
Gde1
Gdf11
Gdf15
Gdf7
Gdf9
Gdi1
Gdnf
Gdpd1
Gdpd5
Gem
Gemin5
Gemin6
Gemin8
Gen1
Gfm2
Gfod1
Gfpt1
Gfra1
Gfra2
Gga1
Gga2
Gga3
Ggact
Ggct
Ggcx
Ggh
Ggnbp2
Ggps1
Ggt5
Ggt7
Ggta1
Ghitm
Ghr
Gid4
Ginm1
Gins1
Gins2
Gins3
Gins4
Gipc1
Git1
Git2
Gja1
Gja4
Gja5
Gjb3
Gjb4
Gjb5
Gjc1
Gjc2
Gkap1
Gla
Glb1
Glb1l
Glcci1
Glce
Gldc
Glg1
Gli1
Gli2
Glipr1
Glipr2
Glis1
Glis2
Glis3
Glo1
Glod4
Glp1r
Glrb
Glrp1
Glrx
Glrx2
Glrx5
Gls
Glt25d1
Glt28d2
Glt8d1
Glt8d2
Gltp
Gltpd1
Gltscr1l
Glud1
Glul
Glyat
Glyctk
Glyr1
Gm10033
Gm10069
Gm10220
Gm10336
Gm10474
Gm10509
Gm10560
Gm10653
Gm10658
Gm10664
Gm10767
Gm10825
Gm11127
Gm11435
Gm11744
Gm11974
Gm12070
Gm12603
Gm129
Gm12942
Gm13154
Gm13157
Gm13178
Gm13293
Gm13375
Gm13826
Gm14005
Gm14295
Gm14326
Gm14327
Gm14403
Gm14420
Gm14436
Gm14440
Gm14446
Gm14872
Gm15417
Gm15421
Gm15441
Gm15446
Gm15455
Gm15612
Gm15645
Gm15663
Gm15698
Gm15706
Gm16039
Gm16197
Gm16515
Gm16516
Gm16576
Gm16596
Gm166
Gm16617
Gm16702
Gm16845
Gm17066
Gm17296
Gm17384
Gm17769
Gm1821
Gm1943
Gm19619
Gm19705
Gm19757
Gm1976
Gm2012
Gm20125
Gm20139
Gm20300
Gm20594
Gm20605
Gm2115
Gm2a
Gm3414
Gm3604
Gm3716
Gm3776
Gm4262
Gm4951
Gm5113
Gm5141
Gm5169
Gm5531
Gm5577
Gm561
Gm5803
Gm5833
Gm5886
Gm608
Gm6251
Gm6297
Gm6548
Gm6634
Gm6682
Gm694
Gm7609
Gm773
Gm8773
Gm9079
Gm996
Gmeb2
Gmfb
Gmnn
Gmppa
Gmppb
Gmpr
Gmps
Gna11
Gna12
Gna13
Gna14
Gnai1
Gnai2
Gnai3
Gnao1
Gnaq
Gnas
Gnat2
Gnb1
Gnb2
Gnb2l1
Gnb4
Gnb5
Gne
Gng10
Gng12
Gng2
Gng5
Gng7
Gnl1
Gnl2
Gnl3
Gnpat
Gnpda1
Gnpda2
Gnpnat1
Gnptg
Gns
Golga1
Golga2
Golga4
Golga5
Golga7
Golgb1
Golim4
Golm1
Golph3
Golph3l
Golt1b
Gopc
Gorab
Gorasp1
Gorasp2
Gosr1
Gosr2
Got1
Gp1ba
Gp1bb
Gpam
Gpatch11
Gpatch2l
Gpatch3
Gpatch4
Gpbp1
Gpbp1l1
Gpc4
Gpc6
Gpcpd1
Gpd1l
Gpd2
Gphn
Gpi1
Gpld1
Gpn1
Gpn2
Gpnmb
Gpr108
Gpr115
Gpr116
Gpr123
Gpr124
Gpr126
Gpr132
Gpr137
Gpr137b
Gpr137b-ps
Gpr141
Gpr146
Gpr155
Gpr156
Gpr157
Gpr162
Gpr173
Gpr174
Gpr176
Gpr180
Gpr30
Gpr39
Gpr64
Gpr81
Gpr85
Gpr89
Gprasp1
Gprc5a
Gprc5b
Gprin3
Gpsm1
Gpsm2
Gpsm3
Gpt2
Gpx1
Gpx3
Gpx7
Gpx8
Gramd1a
Gramd1b
Gramd4
Grasp
Grb10
Grb14
Grcc10
Greb1
Grem1
Grem2
Grhl1
Grhl2
Grhpr
Grik2
Grik5
Grin2d
Grina
Grip1
Gripap1
Grk4
Grk5
Grlf1
Grn
Grpel1
Grpel2
Grpr
Grsf1
Grtp1
Grwd1
Gsdmd
Gse1
Gsg2
Gsk3a
Gsk3b
Gsn
Gspt1
Gspt2
Gss
Gsta1
Gsta2
Gsta3
Gsta4
Gstm1
Gstm2
Gstm4
Gstm7
Gsto1
Gstp1
Gstp2
Gstt1
Gstt3
Gstt4
Gstz1
Gt(ROSA)26Sor
Gtdc1
Gtf2a1
Gtf2a2
Gtf2b
Gtf2e2
Gtf2f1
Gtf2f2
Gtf2h1
Gtf2h4
Gtf2h5
Gtf2ird1
Gtf2ird2
Gtf3c1
Gtf3c3
Gtf3c4
Gtf3c5
Gtpbp1
Gtpbp10
Gtpbp2
Gtpbp3
Gtpbp4
Gtse1
Gucd1
Gucy1a2
Gulp1
Gusb
Gxylt1
Gxylt2
Gyg
Gyk
Gypc
H13
H19
H1f0
H1fx
H2-DMa
H2-DMb1
H2-Ke2
H2-Ke6
H2-M10.1
H2-M10.4
H2-M3
H2-T10
H2-T22
H2-T23
H2-T24
H2afj
H2afv
H2afx
H2afy
H2afy2
H2afz
H3f3b
H6pd
Hace1
Hacl1
Hadh
Hadha
Hadhb
Haghl
Hao1
Hap1
Hapln1
Hapln4
Harbi1
Hars
Has2
Has3
Hat1
Haus1
Haus3
Haus4
Haus5
Haus6
Haus7
Haus8
Havcr2
Hax1
Hbegf
Hbp1
Hbs1l
Hccs
Hcfc1
Hcfc1r1
Hcfc2
Hcls1
Hcn1
Hcn2
Hdac1
Hdac10
Hdac11
Hdac3
Hdac4
Hdac5
Hdac6
Hdac7
Hdac8
Hddc2
Hddc3
Hdgf
Hdgfrp2
Hdgfrp3
Hdhd2
Hdhd3
Hdlbp
Heatr1
Heatr2
Heatr5a
Heatr5b
Hebp1
Hebp2
Heca
Hectd1
Hectd3
Hecw1
Hecw2
Heg1
Helb
Hells
Helq
Helz2
Heph
Herc1
Herc2
Herc3
Herc4
Herpud1
Herpud2
Hes1
Hes6
Hexa
Hexb
Hexdc
Hexim1
Hexim2
Hey2
Hgf
Hgs
Hgsnat
Hhat
Hhex
Hhipl1
Hiat1
Hiatl1
Hibch
Hic1
Hid1
Hif1a
Higd1a
Higd2a
Hinfp
Hint1
Hip1
Hipk1
Hipk2
Hipk4
Hira
Hirip3
Hist1h1c
Hist1h2ac
Hist1h2ao
Hist1h3c
Hist1h4i
Hist2h2be
Hivep1
Hivep3
Hjurp
Hk1
Hk2
Hlcs
Hltf
Hlx
Hmbox1
Hmbs
Hmcn1
Hmg20a
Hmg20b
Hmga1
Hmga2
Hmgb1
Hmgb1-rs17
Hmgb2
Hmgb3
Hmgcl
Hmgcll1
Hmgcr
Hmgcs1
Hmgn2
Hmgn3
Hmgn5
Hmgxb3
Hmgxb4
Hmmr
Hmox1
Hn1
Hn1l
Hnrnpa0
Hnrnpa2b1
Hnrnpa3
Hnrnpab
Hnrnpd
Hnrnpf
Hnrnph1
Hnrnpl
Hnrnpm
Hnrnpr
Hnrnpul1
Hnrnpul2
Hnrpdl
Hnrpll
Homer1
Homer3
Hook2
Hook3
Hopx
Hoxa10
Hoxa11
Hoxa11as
Hoxa13
Hoxa2
Hoxa3
Hoxa5
Hoxa6
Hoxa9
Hoxb3
Hoxb4
Hoxb5
Hoxb6
Hoxb7
Hoxb9
Hoxc10
Hoxc13
Hoxc4
Hoxc5
Hoxc6
Hoxc8
Hoxc9
Hp
Hp1bp3
Hpcal1
Hpgd
Hprt
Hps1
Hps3
Hps4
Hps6
Hr
Hras1
Hrc
Hrct1
Hrsp12
Hs1bp3
Hs3st3b1
Hs6st1
Hs6st2
Hs6st3
Hscb
Hsd11b1
Hsd17b1
Hsd17b10
Hsd17b11
Hsd17b12
Hsd17b4
Hsd17b7
Hsd3b7
Hsdl1
Hsdl2
Hsf1
Hsf2
Hsp90aa1
Hsp90ab1
Hsp90b1
Hspa12a
Hspa13
Hspa14
Hspa1a
Hspa1b
Hspa1l
Hspa4
Hspa4l
Hspa5
Hspa8
Hspa9
Hspb1
Hspb6
Hspb8
Hspbap1
Hspd1
Hspe1
Hspg2
Hsph1
Htatip2
Htatsf1
Htr1b
Htr2a
Htr7
Htra1
Htra2
Htra3
Htt
Hus1
Huwe1
Hvcn1
Hyal1
Hyi
Hyls1
Hyou1
Hypk
Iah1
Iars
Iars2
Ibtk
Ica1
Icam1
Icam5
Ick
Id1
Id2
Id3
Id4
Idh1
Idh2
Idi1
Idnk
Ids
Idua
Ier2
Ier3
Ier5
Iffo1
Iffo2
Ifi203
Ifi27l1
Ifi27l2a
Ifi30
Ifi35
Ifi44
Ifih1
Ifit1
Ifit2
Ifit3
Ifitm1
Ifitm2
Ifitm6
Ifnar1
Ifngr1
Ifngr2
Ifrd1
Ifrd2
Ift140
Ift172
Ift20
Ift27
Ift46
Ift74
Ift80
Ift81
Igbp1
Igf1r
Igf2
Igf2bp1
Igf2bp2
Igf2bp3
Igf2r
Igfbp2
Igfbp4
Igfbp7
Igsf10
Igsf3
Igsf5
Igsf8
Igsf9b
Igtp
Iigp1
Ikbkb
Ikbke
Ikbkg
Ikzf5
Il10rb
Il12rb1
Il13ra1
Il13ra2
Il15
Il15ra
Il17ra
Il17rc
Il18
Il1r1
Il1rap
Il1rl1
Il1rn
Il20ra
Il23a
Il27ra
Il2rg
Il34
Il4ra
Il6ra
Il7
Ildr2
Ilf2
Ilf3
Ilkap
Immp2l
Immt
Imp3
Imp4
Impa2
Impact
Impad1
Impdh2
Inadl
Incenp
Inf2
Ing1
Ing4
Ing5
Inip
Ino80
Ino80b
Ino80c
Ino80d
Inpp1
Inpp4b
Inpp5a
Inpp5b
Inpp5j
Inppl1
Insc
Insig1
Insig2
Insr
Ints1
Ints10
Ints12
Ints3
Ints6
Ints7
Ints8
Ip6k1
Ip6k2
Ip6k3
Ipmk
Ipo11
Ipo13
Ipo5
Ipo7
Ipo8
Ipo9
Ipp
Ippk
Iqcb1
Iqcc
Iqce
Iqgap1
Iqgap3
Iqsec1
Iqsec2
Irak1bp1
Irak2
Irak3
Irak4
Ireb2
Irf1
Irf2
Irf2bp1
Irf2bp2
Irf4
Irf5
Irf6
Irf7
Irf9
Irgm2
Irs1
Irs2
Irx1
Irx2
Isca2
Iscu
Isg15
Isg20
Isg20l2
Isl1
Islr
Ism1
Isoc1
Isy1
Isyna1
Itfg3
Itga1
Itga11
Itga2
Itga2b
Itga3
Itga5
Itga6
Itga7
Itga8
Itga9
Itgad
Itgal
Itgav
Itgb1
Itgb1bp1
Itgb1bp2
Itgb2
Itgb3
Itgb3bp
Itgb6
Itgb7
Itgb8
Itgbl1
Itih2
Itk
Itm2a
Itm2b
Itm2c
Itpa
Itpkc
Itpr2
Itpr3
Itprip
Itpripl1
Itpripl2
Itsn2
Ivns1abp
Iws1
Izumo4
Jag2
Jagn1
Jak1
Jak2
Jak3
Jakmip3
Jam2
Jam3
Jarid2
Jdp2
Jhdm1d
Jkamp
Jmjd1c
Jmjd4
Jmjd6
Jmy
Josd1
Josd2
Jph1
Jph2
Jrk
Jsrp1
Jtb
Jun
Junb
Jund
Jup
Kalrn
Kank1
Kank2
Kank3
Kansl1
Kansl1l
Kansl2
Kansl3
Kars
Kat2b
Kat5
Kat8
Katna1
Katnal1
Katnal2
Katnb1
Katnbl1
Kazald1
Kbtbd11
Kbtbd2
Kbtbd4
Kcmf1
Kcna4
Kcnab1
Kcnab2
Kcnab3
Kcnd1
Kcne4
Kcnf1
Kcnh2
Kcnh5
Kcnip4
Kcnj15
Kcnk12
Kcnk2
Kcnk3
Kcnk5
Kcnk6
Kcnma1
Kcnmb1
Kcnn3
Kcnn4
Kcnq1
Kcnq1ot1
Kcnq5
Kcnt2
Kctd10
Kctd11
Kctd12
Kctd12b
Kctd13
Kctd14
Kctd15
Kctd17
Kctd18
Kctd20
Kctd3
Kctd4
Kctd5
Kctd6
Kctd7
Kctd8
Kdelc1
Kdelr1
Kdelr3
Kdm1a
Kdm1b
Kdm2a
Kdm2b
Kdm4a
Kdm4c
Kdm5a
Kdm5b
Kdm6a
Kdm6b
Kdr
Kdsr
Keap1
Khdrbs1
Khdrbs2
Khdrbs3
Khk
Khnyn
Khsrp
Kif11
Kif13b
Kif14
Kif15
Kif16b
Kif18a
Kif18b
Kif19a
Kif1b
Kif20a
Kif20b
Kif21b
Kif22
Kif23
Kif24
Kif26b
Kif2c
Kif3a
Kif3c
Kif4
Kif5a
Kif5b
Kif5c
Kif7
Kifap3
Kifc1
Kifc3
Kifc5b
Kirrel
Kirrel3
Kiss1r
Kitl
Klb
Klc2
Klc3
Klc4
Klf10
Klf11
Klf12
Klf13
Klf15
Klf16
Klf2
Klf3
Klf4
Klf5
Klf6
Klf9
Klhdc1
Klhdc10
Klhdc2
Klhdc3
Klhdc4
Klhdc5
Klhdc8a
Klhdc9
Klhl1
Klhl11
Klhl12
Klhl13
Klhl18
Klhl20
Klhl21
Klhl22
Klhl24
Klhl25
Klhl26
Klhl28
Klhl30
Klhl32
Klhl36
Klhl40
Klhl41
Klhl5
Klhl7
Klhl9
Klk10
Klra18
Klra2
Kng1
Knstrn
Kntc1
Kpna1
Kpna2
Kpna3
Kpnb1
Kptn
Kras
Krcc1
Kremen1
Krr1
Krt10
Krt13
Krt14
Krt19
Krt36
Krt80
Krt83
Krt85
Krtcap2
Ksr1
Kti12
Ktn1
L1cam
L3hypdh
L3mbtl2
LOC106740
Lacc1
Lactb
Lactb2
Lage3
Lama1
Lama2
Lama3
Lama5
Lamb1
Lamb2
Lamb3
Lamc1
Lamc2
Lamp1
Lamp2
Lamp3
Lamtor1
Lamtor3
Lamtor4
Lamtor5
Lancl1
Lancl2
Lancl3
Laptm4a
Laptm4b
Large
Larp1
Larp1b
Larp4
Larp4b
Larp6
Larp7
Lars
Las1l
Lasp1
Lats1
Lats2
Layn
Lbh
Lbr
Lca5l
Lck
Lcmt1
Lcmt2
Lcn2
Lcorl
Lct
Lctl
Ldb2
Ldb3
Ldha
Ldhb
Ldhd
Ldlr
Ldlrad3
Ldlrad4
Lefty1
Lemd1
Lemd2
Leng1
Leng9
Leo1
Lepr
Lepre1
Leprel1
Leprel2
Leprel4
Leprot
Leprotl1
Letm1
Letm2
Lfng
Lgals1
Lgals2
Lgals3
Lgals3bp
Lgals8
Lgals9
Lgalsl
Lgi4
Lgmn
Lgr4
Lgr6
Lhfp
Lhfpl2
Lhfpl3
Lhpp
Lhx6
Lhx9
Lif
Lifr
Lig1
Lig3
Lima1
Limch1
Limd1
Limd2
Limk1
Limk2
Lims1
Lin52
Lin54
Lin7a
Lin9
Lingo4
Lins
Lipg
Liph
Lipi
Lipo1
Litaf
Llph
Lman1
Lman2
Lman2l
Lmbr1l
Lmbrd1
Lmbrd2
Lmf1
Lmf2
Lmln
Lmna
Lmnb1
Lmnb2
Lmo1
Lmo4
Lmo7
Lmod1
Lmod2
Lmod3
Lmtk2
Lmtk3
Lnp
Lnpep
Lnx2
Lonp1
Lonrf1
Lonrf3
Lox
Loxl1
Loxl2
Loxl3
Loxl4
Lpar2
Lpar4
Lpar6
Lpcat1
Lpcat2
Lpcat3
Lpcat4
Lphn1
Lphn2
Lphn3
Lpin1
Lpin3
Lpp
Lrba
Lrch2
Lrdd
Lrfn4
Lrguk
Lrif1
Lrig2
Lrp10
Lrp11
Lrp12
Lrp2
Lrp2bp
Lrp3
Lrp6
Lrp8
Lrpap1
Lrpprc
Lrr1
Lrrc1
Lrrc14
Lrrc15
Lrrc17
Lrrc24
Lrrc27
Lrrc28
Lrrc29
Lrrc32
Lrrc39
Lrrc40
Lrrc42
Lrrc45
Lrrc46
Lrrc47
Lrrc49
Lrrc4c
Lrrc51
Lrrc56
Lrrc58
Lrrc59
Lrrc61
Lrrc8a
Lrrc8b
Lrrc8e
Lrrcc1
Lrrd1
Lrrfip1
Lrrfip2
Lrrk1
Lrrk2
Lrrn1
Lrrn3
Lrrn4cl
Lrsam1
Lrwd1
Lsg1
Lsm1
Lsm10
Lsm14a
Lsm14b
Lsm2
Lsm3
Lsm4
Lsm5
Lsm6
Lsmd1
Lsp1
Lst1
Ltbp1
Ltbp2
Ltbp3
Ltbp4
Ltv1
Luc7l2
Luc7l3
Lurap1l
Luzp4
Lxn
Ly6a
Ly6c1
Ly6d
Ly9
Ly96
Lyar
Lyn
Lynx1
Lypd6
Lypla1
Lyrm2
Lyrm4
Lyrm5
Lysmd1
Lysmd2
Lysmd3
Lyst
Lyz2
Lztr1
Maats1
Mab21l2
Macc1
Macf1
Macrod1
Macrod2
Mad1l1
Mad2l1
Mad2l1bp
Mad2l2
Madd
Maea
Maf
Maf1
Mafb
Maff
Mafg
Mafk
Magea8
Maged1
Maged2
Magee1
Magi1
Magi2
Magi3
Magt1
Mak16
Mal
Mal2
Malt1
Mamdc2
Maml1
Maml2
Maml3
Mamld1
Man1a
Man1c1
Man2a1
Man2b1
Man2b2
Manba
Manbal
Manea
Manf
Maoa
Map1a
Map1lc3b
Map1s
Map2
Map2k1
Map2k2
Map2k3
Map2k4
Map2k5
Map2k6
Map2k7
Map3k10
Map3k11
Map3k12
Map3k13
Map3k14
Map3k19
Map3k2
Map3k3
Map3k4
Map3k8
Map3k9
Map4
Map4k2
Map4k4
Map6d1
Map7d1
Map7d2
Map9
Mapk1
Mapk11
Mapk12
Mapk13
Mapk14
Mapk1ip1l
Mapk3
Mapk6
Mapk8
Mapk8ip1
Mapk8ip3
Mapk9
Mapkapk2
Mapkapk3
Mapkapk5
Mapkbp1
Mapre1
Mapre2
Marc2
March1
March2
March5
March6
March7
March8
March9
Marcks
Marcksl1
Mark2
Mark4
Mars
Marveld1
Masp1
Mast1
Mast3
Mast4
Mastl
Mat2a
Matn2
Mavs
Max
Maz
Mb
Mb21d2
Mbd2
Mbd4
Mbd5
Mblac2
Mbnl2
Mbnl3
Mboat2
Mboat7
Mbp
Mbtd1
Mbtps1
Mbtps2
Mcc
Mccc1
Mccc2
Mcf2l
Mcfd2
Mcl1
Mcm10
Mcm2
Mcm3
Mcm3ap
Mcm4
Mcm5
Mcm6
Mcm7
Mcm8
Mcm9
Mcmbp
Mcoln1
Mcoln2
Mcph1
Mcts1
Mcts2
Mdc1
Mdfi
Mdfic
Mdga1
Mdh1
Mdm1
Mdm2
Mdm4
Mdn1
Mdp1
Me1
Me2
Me3
Meaf6
Mecom
Mecp2
Mecr
Med1
Med11
Med12
Med12l
Med13
Med13l
Med16
Med17
Med20
Med21
Med25
Med26
Med30
Med31
Med4
Med7
Med8
Medag
Mef2a
Mef2c
Mef2d
Megf10
Megf6
Megf8
Megf9
Mei4
Meiob
Meis1
Meis2
Meis3
Melk
Memo1
Men1
Meox1
Mep1a
Mepce
Mertk
Mesdc1
Mesdc2
Mest
Met
Metap1
Metap2
Metrnl
Mettl1
Mettl13
Mettl14
Mettl16
Mettl17
Mettl2
Mettl20
Mettl21a
Mettl22
Mettl23
Mettl24
Mettl25
Mettl3
Mettl5
Mettl6
Mettl7a1
Mettl7b
Mettl9
Mex3a
Mex3b
Mex3c
Mex3d
Mfap1a
Mfap1b
Mfap3
Mfap3l
Mfap5
Mff
Mfge8
Mfhas1
Mfi2
Mfn1
Mfn2
Mfsd1
Mfsd11
Mfsd2a
Mfsd2b
Mfsd4
Mfsd5
Mfsd6
Mfsd7a
Mfsd7b
Mfsd8
Mga
Mgat1
Mgat4a
Mgat4b
Mgat4c
Mgat5
Mgea5
Mgll
Mgmt
Mgrn1
Mgst1
Mgst2
Mgst3
Mia3
Miat
Mib1
Mib2
Mical1
Mical2
Mical3
Micall1
Micall2
Mid1
Mid1ip1
Midn
Mien1
Mier2
Mif
Mif4gd
Miip
Mink1
Minos1
Mipol1
Mir17hg
Mir22hg
Mis18a
Mis18bp1
Mki67
Mki67ip
Mkks
Mkl1
Mkln1
Mknk1
Mknk2
Mkrn2
Mks1
Mkx
Mlana
Mlec
Mlf1
Mlf1ip
Mlf2
Mlh3
Mlip
Mlkl
Mll2
Mll5
Mllt11
Mlph
Mlst8
Mlx
Mlycd
Mmaa
Mmab
Mmachc
Mmadhc
Mmp11
Mmp12
Mmp13
Mmp14
Mmp16
Mmp17
Mmp19
Mmp2
Mmp23
Mmp27
Mms19
Mms22l
Mn1
Mnat1
Mnd1
Mnda
Mndal
Mnf1
Mns1
Mnt
Mob1b
Mob3c
Mob4
Mocos
Mocs1
Mogat2
Mogs
Mon2
Morc1
Morc4
Morf4l2
Morn2
Mospd1
Mospd2
Mospd3
Mospd4
Mov10
Moxd1
Mpc1
Mphosph10
Mphosph6
Mphosph9
Mplkip
Mpnd
Mpp1
Mpp2
Mpp4
Mpp6
Mpped2
Mprip
Mpv17l
Mpv17l2
Mpzl1
Mr1
Mras
Mrc2
Mre11a
Mreg
Mrfap1
Mrgbp
Mrgprf
Mroh1
Mrpl1
Mrpl11
Mrpl13
Mrpl14
Mrpl15
Mrpl16
Mrpl17
Mrpl18
Mrpl19
Mrpl2
Mrpl20
Mrpl22
Mrpl23
Mrpl24
Mrpl28
Mrpl3
Mrpl30
Mrpl32
Mrpl33
Mrpl34
Mrpl35
Mrpl37
Mrpl38
Mrpl39
Mrpl41
Mrpl42
Mrpl43
Mrpl44
Mrpl45
Mrpl47
Mrpl49
Mrpl51
Mrpl55
Mrps10
Mrps11
Mrps15
Mrps16
Mrps18a
Mrps18c
Mrps2
Mrps21
Mrps22
Mrps25
Mrps27
Mrps28
Mrps30
Mrps31
Mrps33
Mrps34
Mrps36
Mrps5
Mrps6
Mrps9
Mrrf
Mrs2
Mrto4
Mrvi1
Ms4a6d
Msantd2
Msantd3
Msc
Msh2
Msh3
Msh5
Msh6
Msi2
Msl2
Msl3
Msl3l2
Msln
Mslnl
Msrb1
Msrb2
Mss51
Mstn
Msto1
Msx1
Msx2
Mta1
Mta3
Mtbp
Mtch1
Mtch2
Mtdh
Mterfd1
Mterfd2
Mtf2
Mtfp1
Mtfr1
Mtfr2
Mthfd1l
Mthfd2
Mthfd2l
Mthfr
Mthfsd
Mtif2
Mtm1
Mtmr10
Mtmr11
Mtmr12
Mtmr14
Mtmr2
Mtmr3
Mtmr6
Mtor
Mtpap
Mtpn
Mtrr
Mtss1
Mtss1l
Mttp
Mtus1
Muc1
Muc13
Mum1
Mus81
Musk
Mustn1
Mut
Mutyh
Mvb12a
Mvb12b
Mvd
Mvk
Mvp
Mx2
Mxd3
Mxd4
Mxi1
Mxra8
Myadm
Mybbp1a
Mybl1
Mybl2
Mybpc1
Mybph
Myc
Mycbp
Mycl1
Myef2
Myf5
Myh1
Myh10
Myh14
Myh2
Myh3
Myl1
Myl10
Myl12a
Myl12b
Myl4
Myl6
Myl9
Mylip
Mylk
Mylk4
Mylpf
Mynn
Myo18a
Myo1d
Myo1e
Myo1h
Myo6
Myo7a
Myo9a
Myo9b
Myoc
Myod1
Myof
Myog
Myom1
Myom2
Myom3
Myoz1
Myoz2
Mypop
Mysm1
Myzap
Mzf1
Mzt1
Mzt2
N4bp1
N4bp2
N4bp2l1
N4bp2l2
Naa10
Naa15
Naa16
Naa25
Naa30
Naa40
Naaa
Naalad2
Naaladl1
Nab1
Nab2
Nabp1
Naca
Nacad
Nacc1
Nacc2
Nadk
Nadkd1
Nadsyn1
Nae1
Naf1
Naga
Nagk
Naglu
Naif1
Naip2
Nalcn
Nampt
Nanp
Nap1l1
Nap1l4
Napa
Napb
Napepld
Napg
Naprt1
Narf
Narg2
Nars
Nars2
Nasp
Nat10
Nat2
Nat6
Nat9
Nav1
Nav2
Nav3
Nbas
Nbea
Nbeal1
Nbl1
Nbn
Nbr1
Ncam2
Ncapd2
Ncapd3
Ncapg
Ncapg2
Ncaph
Ncaph2
Ncbp1
Ncbp2
Ncdn
Nceh1
Nck1
Nckap1
Nckap5
Nckap5l
Nckipsd
Ncl
Ncln
Ncoa4
Ncoa5
Ncoa7
Ncor1
Ncor2
Ncrna00085
Ncstn
Ndc80
Nde1
Ndel1
Ndfip1
Ndfip2
Ndnl2
Ndor1
Ndp
Ndrg1
Ndrg2
Ndrg3
Ndrg4
Ndst1
Ndst2
Ndst3
Ndufa1
Ndufa10
Ndufa11
Ndufa12
Ndufa3
Ndufa4
Ndufa4l2
Ndufa5
Ndufa6
Ndufa7
Ndufa8
Ndufaf2
Ndufaf3
Ndufaf4
Ndufaf5
Ndufaf7
Ndufb10
Ndufb2
Ndufb4
Ndufb6
Ndufb7
Ndufb8
Ndufb9
Ndufs1
Ndufs7
Ndufs8
Ndufv1
Ndufv2
Ndufv3
Necap1
Nedd4
Nedd4l
Negr1
Neil3
Nek1
Nek2
Nek4
Nek6
Nek7
Nek8
Nek9
Nelfa
Nelfb
Nelfcd
Nelfe
Nenf
Neo1
Nes
Nespas
Net1
Neto2
Neu1
Neu2
Neu3
Neurl1b
Nexn
Nf1
Nf2
Nfat5
Nfatc1
Nfatc2
Nfatc2ip
Nfe2l1
Nfe2l2
Nfia
Nfic
Nfil3
Nfix
Nfkb1
Nfkb2
Nfkbia
Nfkbib
Nfkbie
Nfkbiz
Nfrkb
Nfu1
Nfx1
Nfxl1
Nfyc
Ngdn
Ngef
Ngf
Ngfrap1
Ngly1
Ngrn
Nhlrc3
Nhp2
Nhp2l1
Nhs
Nhsl1
Niacr1
Nicn1
Nid1
Nif3l1
Nim1
Nin
Ninj1
Ninl
Nip7
Nipa2
Nipal1
Nipbl
Nipsnap1
Nipsnap3b
Nit1
Nkain1
Nkain2
Nkap
Nkd2
Nkiras2
Nkrf
Nktr
Nkx6-1
Nle1
Nlgn3
Nlk
Nlrc3
Nlrp2
Nmd3
Nme1
Nme2
Nme3
Nme6
Nme7
Nmnat2
Nmnat3
Nmrk2
Nmt1
Nmt2
Nnmt
Nob1
Noc2l
Noc3l
Nod1
Nod2
Nol10
Nol11
Nol12
Nol3
Nol4
Nol8
Nol9
Nolc1
Nom1
Nomo1
Nop10
Nop14
Nop16
Nop2
Nop56
Nop58
Nop9
Nos1
Nos1ap
Notch2
Notch3
Notch4
Nov
Nova1
Nox4
Noxo1
Npas2
Npas3
Npas4
Npc1
Npc2
Npdc1
Npepl1
Nphp3
Nphp4
Nploc4
Npm1
Npm3
Nppc
Npr2
Nptx1
Nptxr
Nqo1
Nqo2
Nr1d1
Nr1d2
Nr1h2
Nr1h3
Nr2c1
Nr2c2ap
Nr2f2
Nr2f6
Nr3c1
Nr4a1
Nr4a2
Nradd
Nrap
Nras
Nrbp1
Nrbp2
Nrcam
Nrd1
Nrde2
Nrep
Nrf1
Nrg1
Nrg2
Nrg4
Nrip2
Nrip3
Nrm
Nrn1
Nrp1
Nrtn
Nrxn2
Nsa2
Nsdhl
Nsf
Nsfl1c
Nsg1
Nsg2
Nsl1
Nsmaf
Nsmce1
Nsmce2
Nsmce4a
Nsmf
Nsun2
Nsun4
Nsun7
Nt5c2
Nt5c3
Nt5dc1
Nt5dc2
Nt5dc3
Nt5e
Ntan1
Ntmt1
Ntn1
Ntn4
Ntng2
Ntrk3
Nts
Ntsr2
Nuak1
Nuak2
Nubp2
Nubpl
Nucb1
Nucb2
Nucks1
Nudcd1
Nudcd2
Nudcd3
Nudt1
Nudt12
Nudt13
Nudt19
Nudt2
Nudt22
Nudt4
Nudt5
Nudt7
Nudt8
Nudt9
Nuf2
Nufip1
Numa1
Numbl
Nup107
Nup133
Nup153
Nup155
Nup160
Nup188
Nup205
Nup35
Nup50
Nup54
Nup85
Nup88
Nup93
Nup98
Nupl1
Nupr1
Nus1
Nusap1
Nxf3
Nxf7
Nxn
Nxpe4
Nxt1
Nynrin
Nyx
Oaf
Oard1
Oas1a
Oas1g
Oas2
Oasl1
Oasl2
Oaz1
Oaz2
Obfc1
Obscn
Obsl1
Ocel1
Ociad1
Ociad2
Ocrl
Odc1
Odf2
Odf2l
Odf3l1
Odf3l2
Ofd1
Ogdh
Ogdhl
Ogfod1
Ogg1
Oip5
Oit3
Ola1
Olfml2a
Olfml2b
Olfml3
Olfr1258
Olfr1259
Olig3
Olr1
Oma1
Onecut2
Opa1
Ophn1
Opn1sw
Optn
Orai2
Oraov1
Orc1
Orc2
Orc4
Orc6
Orm1
Orm2
Orm3
Ormdl1
Ormdl3
Os9
Osbp2
Osbpl11
Osbpl1a
Osbpl2
Osbpl3
Osbpl8
Osbpl9
Oscp1
Osgin1
Osgin2
Osmr
Osr1
Osr2
Ost4
Ostc
Ostm1
Ostn
Otog
Otogl
Otor
Otub2
Otud1
Otud3
Otud4
Otud7b
Ovca2
Ovgp1
Oxct1
Oxnad1
Oxr1
Oxsm
Oxsr1
P2rx3
P2rx4
P2rx6
P2rx7
P2ry2
P4ha1
P4ha2
P4ha3
P4hb
Pa2g4
Pabpc4l
Pacs1
Pacs2
Pacsin2
Pacsin3
Pafah1b1
Pafah1b2
Pafah1b3
Pafah2
Pag1
Pagr1a
Paip1
Paip2
Paip2b
Pak1
Pak1ip1
Pak2
Pak3
Pak4
Pak6
Palb2
Palld
Palm2
Palmd
Pam16
Pan2
Pank1
Pank2
Pank3
Pank4
Panx1
Panx3
Paox
Papd5
Papola
Pappa
Pappa2
Papss1
Papss2
Paqr3
Paqr4
Paqr7
Pard3
Pard3b
Pard6a
Pard6g
Parg
Park7
Parl
Parm1
Parn
Parp1
Parp10
Parp11
Parp12
Parp16
Parp2
Parp3
Parp4
Parp6
Parp8
Parpbp
Parva
Parvb
Parvg
Pask
Patl1
Pawr
Pax3
Pax8
Pax9
Paxbp1
Paxip1
Pbdc1
Pbk
Pbld1
Pbrm1
Pbx2
Pbxip1
Pcbd2
Pcbp2
Pcbp3
Pccb
Pcdh11x
Pcdh15
Pcdh17
Pcdh18
Pcdh19
Pcdh20
Pcdh9
Pcdhb13
Pcdhb14
Pcdhb15
Pcdhb17
Pcdhb18
Pcdhb20
Pcdhb7
Pcdhga3
Pcdhga7
Pcdhgb1
Pcdhgc3
Pcdhgc5
Pced1a
Pcf11
Pcgf2
Pcgf3
Pcgf6
Pcid2
Pcif1
Pck2
Pcm1
Pcmt1
Pcmtd1
Pcmtd2
Pcna
Pcnp
Pcnt
Pcnx
Pcnxl3
Pcnxl4
Pcolce
Pcolce2
Pcp4l1
Pcsk2
Pcsk6
Pcsk7
Pctp
Pcyox1
Pcyt1a
Pcyt2
Pdcd10
Pdcd11
Pdcd2
Pdcd2l
Pdcd4
Pdcd5
Pdcd6ip
Pdcl3
Pddc1
Pde12
Pde1b
Pde1c
Pde2a
Pde3a
Pde3b
Pde4a
Pde4b
Pde4dip
Pde5a
Pdf
Pdgfa
Pdgfc
Pdgfd
Pdgfra
Pdgfrb
Pdgfrl
Pdha1
Pdhb
Pdhx
Pdia3
Pdia4
Pdia5
Pdia6
Pdk1
Pdk2
Pdk3
Pdk4
Pdlim1
Pdlim2
Pdlim3
Pdlim5
Pdlim7
Pdp1
Pdpn
Pdpr
Pds5a
Pds5b
Pdss1
Pdxp
Pdzd11
Pdzd4
Pdzd7
Pdzd8
Pdzk1
Pdzrn3
Pea15a
Pebp1
Pecr
Pef1
Peg10
Peg12
Peg13
Peg3
Peli1
Peli2
Peli3
Penk
Peo1
Pepd
Per2
Per3
Pes1
Pet100
Pet112
Pet2
Pex10
Pex11a
Pex11b
Pex12
Pex14
Pex19
Pex2
Pex6
Pfdn1
Pfdn2
Pfdn4
Pfkfb1
Pfkfb4
Pfkl
Pfkm
Pfkp
Pfn1
Pfn2
Pgam1
Pgam2
Pgam5
Pgap1
Pgap3
Pgbd1
Pgbd5
Pgf
Pgk1
Pgls
Pgm1
Pgm2
Pgm2l1
Pgm3
Pgm5
Pgp
Pgpep1
Pgpep1l
Pgr
Pgrmc1
Pgrmc2
Pgs1
Phactr1
Phactr2
Phactr4
Phc1
Phc2
Phc3
Phex
Phf1
Phf10
Phf11d
Phf12
Phf14
Phf16
Phf17
Phf19
Phf2
Phf20l1
Phf23
Phf3
Phf5a
Phf7
Phgdh
Phip
Phka1
Phka2
Phkb
Phkg2
Phlda1
Phlda3
Phldb1
Phldb2
Phldb3
Phlpp1
Phlpp2
Phospho2
Phpt1
Phtf1
Phtf2
Phyh
Phyhd1
Pi15
Pi16
Pi4k2a
Pi4k2b
Pi4ka
Pianp
Pias1
Pias2
Pias3
Pias4
Pibf1
Picalm
Piezo1
Piezo2
Pif1
Piga
Pign
Pigo
Pigp
Pigw
Pigx
Pik3c2a
Pik3ca
Pik3cb
Pik3cg
Pik3ip1
Pik3r1
Pik3r2
Pik3r3
Pik3r6
Pikfyve
Pilra
Pim1
Pim3
Pin4
Pinx1
Pion
Pip4k2a
Pip4k2c
Pip5k1a
Pip5k1b
Pipox
Pir
Pisd
Pisd-ps1
Pisd-ps2
Pithd1
Pitpna
Pitpnb
Pitpnm1
Pitrm1
Pitx1
Pitx2
Pja1
Pja2
Pkd1
Pkd2l2
Pkhd1l1
Pkia
Pkig
Pkm
Pkmyt1
Pkn1
Pkn2
Pkn3
Pknox2
Pkp4
Pla1a
Pla2g12a
Pla2g15
Pla2g16
Pla2g2d
Pla2g2e
Pla2g4a
Pla2g4c
Pla2g5
Pla2g6
Pla2r1
Plaa
Plac8
Plag1
Plagl1
Plagl2
Plat
Plau
Plaur
Plb1
Plbd2
Plcb1
Plcb3
Plcd1
Plce1
Plch1
Plcl1
Plcl2
Plcxd2
Pld2
Plec
Plekha1
Plekha2
Plekha3
Plekha5
Plekha7
Plekha8
Plekhb2
Plekhf1
Plekhg1
Plekhg2
Plekhg4
Plekhg5
Plekhg6
Plekhh1
Plekhh2
Plekhh3
Plekhj1
Plekhm1
Plekhm2
Plekhm3
Plekhn1
Plekho2
Plgrkt
Plin2
Plin3
Plin4
Plk1
Plk1s1
Plk2
Plk3
Plk4
Plod1
Plod2
Plod3
Plp2
Plrg1
Pls3
Plscr1
Plscr2
Plscr4
Pltp
Plvap
Plxdc2
Plxna1
Plxna2
Plxna3
Plxna4
Plxnb1
Plxnc1
Plxnd1
Pmaip1
Pmepa1
Pmf1
Pml
Pmm1
Pmm2
Pmp22
Pmpca
Pmpcb
Pms2
Pmvk
Pnkd
Pnn
Pno1
Pnp
Pnp2
Pnpla2
Pnpla6
Pnpla8
Pnrc1
Pnrc2
Poc1a
Poc1b
Podn
Podnl1
Podxl
Podxl2
Pofut1
Pogk
Poglut1
Pogz
Pola1
Pola2
Polb
Pold1
Pold2
Pold3
Pold4
Poldip3
Pole
Pole2
Pole3
Polg
Polh
Poli
Poll
Polm
Polq
Polr1b
Polr1c
Polr2b
Polr2c
Polr2d
Polr2e
Polr2g
Polr2h
Polr2k
Polr2l
Polr2m
Polr3a
Polr3b
Polr3c
Polr3d
Polr3e
Polr3g
Polr3h
Pomp
Pomt1
Pomt2
Pon3
Por
Postn
Pot1b
Pou2f3
Pou6f1
Ppa1
Ppan
Ppap2a
Ppap2b
Ppap2c
Ppapdc1b
Ppard
Pparg
Ppargc1a
Ppbp
Ppcs
Ppdpf
Ppef1
Ppef2
Ppfia1
Ppfia2
Ppfia3
Ppfia4
Ppfibp1
Ppfibp2
Ppia
Ppib
Ppic
Ppid
Ppie
Ppif
Ppih
Ppil1
Ppil2
Ppil3
Ppil4
Ppip5k2
Ppl
Ppm1a
Ppm1b
Ppm1d
Ppm1e
Ppm1g
Ppm1h
Ppm1k
Ppm1l
Ppm1m
Ppp1ca
Ppp1cb
Ppp1cc
Ppp1r11
Ppp1r12a
Ppp1r12b
Ppp1r12c
Ppp1r13b
Ppp1r13l
Ppp1r14a
Ppp1r14b
Ppp1r14c
Ppp1r15a
Ppp1r15b
Ppp1r16a
Ppp1r16b
Ppp1r18
Ppp1r1b
Ppp1r2
Ppp1r21
Ppp1r37
Ppp1r3b
Ppp1r3c
Ppp1r3f
Ppp1r7
Ppp1r8
Ppp1r9a
Ppp1r9b
Ppp2cb
Ppp2r1a
Ppp2r1b
Ppp2r2a
Ppp2r2b
Ppp2r3a
Ppp2r3c
Ppp2r3d
Ppp2r4
Ppp2r5a
Ppp2r5c
Ppp2r5d
Ppp2r5e
Ppp3cb
Ppp3cc
Ppp3r1
Ppp4c
Ppp4r1
Ppp4r1l-ps
Ppp4r2
Ppp4r4
Ppp5c
Ppp6c
Ppp6r1
Ppp6r3
Pprc1
Ppt1
Ppt2
Pptc7
Ppwd1
Pqlc1
Pqlc3
Pradc1
Praf2
Prc1
Prcp
Prdm10
Prdm15
Prdm16
Prdm2
Prdm4
Prdm5
Prdm9
Prdx1
Prdx2
Prdx3
Prdx5
Prdx6
Prelid1
Prelp
Prep
Prepl
Prex2
Prg4
Prickle1
Prickle2
Prickle3
Prim1
Prim2
Prkaa1
Prkaa2
Prkab2
Prkaca
Prkacb
Prkag1
Prkag2
Prkag3
Prkar1a
Prkar1b
Prkar2a
Prkar2b
Prkca
Prkcd
Prkcdbp
Prkce
Prkci
Prkcsh
Prkd2
Prkd3
Prkg1
Prkg2
Prkra
Prkrip1
Prkrir
Prkx
Prl2c3
Prlr
Prmt1
Prmt10
Prmt2
Prmt3
Prmt5
Prmt7
Prodh
Pros1
Prosapip1
Prosc
Proser1
Prox2
Prpf19
Prpf3
Prpf31
Prpf40b
Prpf4b
Prpf6
Prpf8
Prps1
Prps1l3
Prps2
Prpsap1
Prpsap2
Prr11
Prr12
Prr13
Prr22
Prr3
Prr5
Prr5l
Prr7
Prrc1
Prrc2a
Prrc2b
Prrg1
Prrg4
Prrx1
Prrx2
Prss12
Prss46
Prss56
Prune
Prune2
Prx
Psap
Psat1
Psd3
Psd4
Psen1
Psen2
Psg23
Psip1
Pskh1
Psma1
Psma3
Psma4
Psma5
Psma7
Psmb1
Psmb10
Psmb2
Psmb3
Psmb5
Psmb7
Psmb8
Psmb9
Psmc2
Psmc3
Psmc3ip
Psmc4
Psmc5
Psmc6
Psmd1
Psmd11
Psmd12
Psmd13
Psmd2
Psmd3
Psmd6
Psmd8
Psme1
Psme2
Psme3
Psme4
Psmg2
Psmg3
Psmg4
Pspc1
Psph
Psrc1
Pstk
Ptbp1
Ptbp3
Ptcd1
Ptcd2
Ptcd3
Ptch1
Ptchd1
Ptchd4
Pten
Ptgdr
Ptger1
Ptger2
Ptges
Ptges2
Ptges3
Ptges3l
Ptgfr
Ptgfrn
Ptgis
Ptgr1
Ptgs1
Ptgs2
Pth1r
Pthlh
Ptk2
Ptk2b
Ptk7
Ptms
Ptp4a1
Ptp4a2
Ptplad1
Ptplad2
Ptplb
Ptpmt1
Ptpn1
Ptpn12
Ptpn13
Ptpn14
Ptpn2
Ptpn21
Ptpn23
Ptpn3
Ptpn4
Ptpn5
Ptpn9
Ptprb
Ptprd
Ptprg
Ptprj
Ptprk
Ptprm
Ptprn
Ptprq
Ptprs
Ptprt
Ptpru
Ptprz1
Ptrf
Ptrh1
Ptrh2
Ptrhd1
Pttg1ip
Ptx3
Puf60
Pum1
Pum2
Purb
Pus1
Pus10
Pus3
Pus7
Pusl1
Pvr
Pvrl1
Pvrl2
Pvt1
Pwp1
Pwp2
Pwwp2a
Pwwp2b
Pxdn
Pxk
Pxmp2
Pxmp4
Pxn
Pycr1
Pycr2
Pycrl
Pygb
Pygo1
Pyroxd2
Pyurf
Qk
Qpct
Qpctl
Qrich1
Qrsl1
Qser1
Qsox2
Qtrt1
Qtrtd1
R3hdm1
R3hdm2
R3hdm4
R3hdml
R74862
Rab1
Rab10
Rab11a
Rab11b
Rab11fip1
Rab11fip5
Rab12
Rab13
Rab18
Rab1b
Rab20
Rab21
Rab22a
Rab23
Rab24
Rab27b
Rab28
Rab2b
Rab33a
Rab34
Rab35
Rab36
Rab38
Rab39b
Rab3b
Rab3d
Rab3gap2
Rab3ip
Rab40b
Rab40c
Rab42
Rab43
Rab4b
Rab5a
Rab5b
Rab5c
Rab6a
Rab6b
Rab7
Rab7l1
Rab9
Rabep1
Rabep2
Rabgap1
Rabgef1
Rabif
Rabl5
Rabl6
Rac1
Racgap1
Rad1
Rad17
Rad18
Rad21
Rad23a
Rad23b
Rad51
Rad51ap1
Rad51ap2
Rad51b
Rad54b
Rad54l
Rad54l2
Radil
Rae1
Raet1d
Rai1
Rai14
Rala
Ralbp1
Ralgapa1
Ralgapb
Ralgds
Ralgps2
Raly
Ramp3
Ran
Ranbp1
Ranbp2
Ranbp3l
Ranbp6
Ranbp9
Rangap1
Rap1b
Rap1gds1
Rap2a
Rap2b
Rap2c
Rapgef1
Rapgef2
Rapgef4
Rapgefl1
Raph1
Rapsn
Rara
Rarg
Rars
Rasa2
Rasa4
Rasal2
Rasgef1b
Rasgrp3
Rasl11a
Rasl11b
Rasl12
Rassf1
Rassf2
Rassf3
Rassf4
Rassf5
Rassf6
Rassf8
Raver1
Rb1
Rb1cc1
Rbak
Rbbp4
Rbbp5
Rbbp6
Rbbp7
Rbbp9
Rbck1
Rbfox2
Rbks
Rbl1
Rbl2
Rbm10
Rbm11
Rbm12
Rbm14
Rbm15
Rbm15b
Rbm17
Rbm18
Rbm19
Rbm22
Rbm24
Rbm25
Rbm26
Rbm28
Rbm33
Rbm34
Rbm38
Rbm39
Rbm4
Rbm41
Rbm42
Rbm43
Rbm6
Rbm7
Rbm8a
Rbms1
Rbms2
Rbms3
Rbmx
Rbp4
Rbpj
Rbpms
Rbpms2
Rc3h2
Rcan2
Rcan3
Rcbtb1
Rcc1
Rcc2
Rce1
Rchy1
Rcl1
Rcn1
Rcn2
Rcn3
Rcor1
Rcor2
Rdh10
Rdh12
Rdh9
Rdm1
Reck
Recql
Recql4
Recql5
Reep3
Reep5
Reep6
Rel
Relb
Rell2
Relt
Rem1
Renbp
Repin1
Reps1
Reps2
Ret
Retsat
Rev1
Rev3l
Rex2
Rexo1
Rexo2
Rfc1
Rfc2
Rfc3
Rfc4
Rfc5
Rfesd
Rffl
Rfk
Rft1
Rftn1
Rftn2
Rfwd2
Rfwd3
Rfx1
Rfx2
Rfx3
Rfx5
Rgag4
Rgcc
Rgl1
Rgl2
Rgl3
Rgs10
Rgs12
Rgs16
Rgs19
Rgs2
Rgs3
Rgs4
Rgs5
Rgs7bp
Rgs9bp
Rhbdd1
Rhbdd3
Rhbdf2
Rhbdl3
Rheb
Rhobtb1
Rhobtb2
Rhobtb3
Rhoc
Rhod
Rhof
Rhog
Rhoq
Rhot1
Rhot2
Rhou
Rhov
Rhox5
Ric8
Ric8b
Rictor
Rif1
Rilp
Rilpl1
Rilpl2
Rin1
Rin2
Ring1
Riok1
Riok3
Ripk2
Ripk3
Rit1
Rlim
Rmdn2
Rmi1
Rmi2
Rmnd1
Rmnd5a
Rmst
Rnase10
Rnaseh1
Rnaseh2a
Rnaseh2b
Rnaseh2c
Rnasel
Rnaset2b
Rnd1
Rnf10
Rnf103
Rnf11
Rnf111
Rnf114
Rnf115
Rnf123
Rnf126
Rnf128
Rnf13
Rnf130
Rnf135
Rnf138
Rnf139
Rnf14
Rnf145
Rnf146
Rnf149
Rnf150
Rnf152
Rnf157
Rnf165
Rnf166
Rnf168
Rnf181
Rnf185
Rnf19a
Rnf2
Rnf20
Rnf214
Rnf215
Rnf219
Rnf220
Rnf25
Rnf26
Rnf38
Rnf4
Rnf41
Rnf44
Rnf5
Rnf8
Rnft1
Rnft2
Rnh1
Rnmt
Rnmtl1
Rnpep
Rnps1
Robo1
Robo2
Rock1
Rock2
Rogdi
Rom1
Romo1
Ropn1l
Ror2
Rora
Rp2h
Rpa1
Rpa2
Rpap1
Rpap2
Rpap3
Rpe
Rpf1
Rpf2
Rpgrip1l
Rpia
Rpl10
Rpl10a
Rpl12
Rpl13
Rpl13a
Rpl14
Rpl15
Rpl17
Rpl18
Rpl18a
Rpl19
Rpl21
Rpl22
Rpl22l1
Rpl23
Rpl23a
Rpl24
Rpl27
Rpl27a
Rpl28
Rpl29
Rpl31
Rpl31-ps12
Rpl32
Rpl34-ps1
Rpl35
Rpl35a
Rpl36a
Rpl36al
Rpl37
Rpl38
Rpl39
Rpl4
Rpl41
Rpl5
Rpl7
Rpl8
Rpl9
Rplp0
Rplp1
Rpn1
Rpp14
Rpp21
Rpp25
Rpp25l
Rpp38
Rpp40
Rprd1a
Rprd1b
Rprm
Rps11
Rps12
Rps13
Rps14
Rps15
Rps15a
Rps16
Rps17
Rps18
Rps19
Rps19bp1
Rps2
Rps20
Rps23
Rps24
Rps25
Rps26
Rps27a
Rps28
Rps29
Rps3
Rps3a1
Rps4x
Rps5
Rps6
Rps6ka1
Rps6ka2
Rps6ka3
Rps6ka4
Rps6ka6
Rps6kb1
Rps6kb2
Rps6kc1
Rps7
Rps8
Rps9
Rpsa
Rptor
Rpusd1
Rpusd2
Rraga
Rragc
Rragd
Rras
Rras2
Rrbp1
Rreb1
Rrm1
Rrm2
Rrm2b
Rrn3
Rrp1
Rrp12
Rrp15
Rrp1b
Rrp7a
Rrp8
Rrp9
Rrs1
Rsad1
Rsad2
Rsbn1
Rsbn1l
Rsg1
Rsl1d1
Rsl24d1
Rslcan18
Rsph3a
Rsph3b
Rsph9
Rspo1
Rspo2
Rsrc2
Rsu1
Rtbdn
Rtel1
Rtf1
Rtfdc1
Rtkn
Rtkn2
Rtn4
Rtn4r
Rtn4rl1
Rtp4
Rttn
Rufy1
Rufy3
Rundc1
Rundc3a
Rundc3b
Runx1t1
Runx2
Rusc2
Ruvbl1
Ruvbl2
Rwdd4a
Rxra
Rxrb
Rybp
Ryr1
Ryr2
S100a1
S100a10
S100a11
S100a13
S100a16
S100a4
S100a6
S100b
S100g
S1pr1
S1pr3
Sacm1l
Sae1
Safb
Safb2
Sall2
Samd12
Samd14
Samd4
Samd4b
Samd5
Samd8
Samd9l
Samhd1
Samm50
Sap30bp
Sapcd2
Sar1b
Sarm1
Sarnp
Sars
Sars2
Sart1
Sart3
Sash1
Sass6
Sat1
Sat2
Satb1
Satb2
Sav1
Saysd1
Sbds
Sbf1
Sbf2
Sbno1
Sbno2
Sbsn
Scaf1
Scaf11
Scaf4
Scaf8
Scai
Scamp1
Scamp2
Scamp4
Scamp5
Scap
Scara3
Scara5
Scarb1
Scarb2
Scarf2
Scd1
Scd2
Scd3
Scd4
Scel
Sclt1
Scly
Scmh1
Scml2
Scn1b
Scn2a1
Scn3a
Scn4b
Scn5a
Scnm1
Sco1
Scp2
Scpep1
Scrib
Scrn1
Scrn3
Scyl2
Scyl3
Sdad1
Sdc1
Sdc3
Sdc4
Sdcbp
Sdcbp2
Sdccag3
Sdccag8
Sde2
Sdf2l1
Sdha
Sdpr
Sdr39u1
Sec11a
Sec11c
Sec13
Sec14l1
Sec14l2
Sec16b
Sec22b
Sec23a
Sec23ip
Sec24c
Sec24d
Sec61a1
Sec61b
Sec61g
Sec62
Sec63
Secisbp2
Seh1l
Sel1l
Selk
Selm
Selp
Sema3a
Sema3b
Sema3c
Sema3d
Sema3f
Sema3g
Sema4a
Sema4b
Sema4c
Sema4d
Sema4f
Sema5a
Sema6a
Sema6b
Sema6c
Sema6d
Senp2
Senp3
Senp5
Senp6
Sephs1
Sepn1
Sepp1
Sept11
Sept2
Sept3
Sept5
Sept7
Sept8
Sept9
Sepw1
Serac1
Serf1
Serf2
Serhl
Serinc1
Serinc2
Serinc3
Serinc5
Serp1
Serp2
Serpina3f
Serpina3g
Serpina3h
Serpina3n
Serpinb1a
Serpinb1b
Serpinb1c
Serpinb5
Serpinb8
Serpinb9
Serpinb9b
Serpinb9c
Serpinb9d
Serpine1
Serpine2
Serpinf2
Serpinh1
Serpini1
Sertad1
Sertad2
Sertad3
Sertad4
Sesn1
Sesn2
Sesn3
Sestd1
Setbp1
Setd1a
Setd2
Setd3
Setd5
Setd7
Setd8
Sf1
Sf3a2
Sf3b1
Sf3b2
Sf3b3
Sf3b4
Sf3b5
Sfmbt1
Sfmbt2
Sfn
Sfpq
Sfr1
Sfrp1
Sfrp2
Sfrp4
Sfswap
Sft2d1
Sft2d2
Sfxn1
Sfxn2
Sfxn3
Sfxn5
Sgca
Sgcb
Sgcg
Sgk1
Sgk3
Sgms1
Sgms2
Sgol1
Sgol2
Sgpl1
Sgpp1
Sgsh
Sgsm1
Sgsm2
Sgsm3
Sgta
Sh2b1
Sh2b2
Sh2b3
Sh2d1b1
Sh3bgrl2
Sh3bgrl3
Sh3bp1
Sh3bp2
Sh3bp4
Sh3bp5
Sh3d19
Sh3gl1
Sh3glb2
Sh3kbp1
Sh3pxd2a
Sh3rf3
Sh3tc1
Sh3tc2
Shank2
Shank3
Shb
Shc1
Shcbp1
Shf
Shfm1
Shisa4
Shmt1
Shmt2
Shox2
Shq1
Shroom1
Shroom3
Shroom4
Siae
Siah1a
Siah1b
Siah2
Siglecg
Sigmar1
Sik1
Sik2
Sil1
Simc1
Sipa1
Sirpa
Sirt1
Sirt2
Sirt6
Sis
Six1
Six4
Six5
Ska1
Ska2
Ska3
Skap1
Skap2
Ski
Skida1
Skil
Skiv2l
Skp1a
Skp2
Sla
Slain2
Slamf9
Slbp
Slc10a3
Slc10a6
Slc10a7
Slc11a1
Slc12a2
Slc12a4
Slc12a6
Slc12a7
Slc13a3
Slc15a3
Slc15a4
Slc16a1
Slc16a10
Slc16a14
Slc16a2
Slc16a4
Slc16a5
Slc17a5
Slc17a6
Slc18a1
Slc18a2
Slc18b1
Slc19a1
Slc19a2
Slc19a3
Slc1a3
Slc1a4
Slc1a5
Slc1a6
Slc1a7
Slc20a1
Slc20a2
Slc22a15
Slc22a17
Slc22a21
Slc22a23
Slc22a4
Slc23a2
Slc23a3
Slc24a2
Slc24a3
Slc25a1
Slc25a10
Slc25a11
Slc25a12
Slc25a13
Slc25a17
Slc25a19
Slc25a20
Slc25a24
Slc25a25
Slc25a28
Slc25a29
Slc25a3
Slc25a30
Slc25a32
Slc25a33
Slc25a35
Slc25a36
Slc25a37
Slc25a38
Slc25a39
Slc25a40
Slc25a42
Slc25a44
Slc25a45
Slc25a46
Slc25a5
Slc25a51
Slc26a11
Slc26a2
Slc27a3
Slc27a4
Slc27a6
Slc29a1
Slc29a3
Slc2a1
Slc2a10
Slc2a12
Slc2a9
Slc30a3
Slc30a4
Slc30a5
Slc30a6
Slc30a9
Slc31a1
Slc31a2
Slc33a1
Slc35a2
Slc35a3
Slc35a4
Slc35a5
Slc35b1
Slc35b2
Slc35b3
Slc35c2
Slc35d2
Slc35e2
Slc35e3
Slc35e4
Slc35f5
Slc35f6
Slc36a1
Slc36a4
Slc37a2
Slc37a3
Slc38a1
Slc38a10
Slc38a2
Slc38a4
Slc38a6
Slc38a7
Slc39a1
Slc39a10
Slc39a11
Slc39a13
Slc39a3
Slc39a6
Slc39a7
Slc39a8
Slc39a9
Slc3a2
Slc40a1
Slc41a2
Slc41a3
Slc43a1
Slc43a2
Slc43a3
Slc44a1
Slc44a2
Slc44a5
Slc45a3
Slc45a4
Slc46a3
Slc4a11
Slc4a2
Slc4a3
Slc4a4
Slc4a7
Slc4a8
Slc50a1
Slc52a3
Slc5a3
Slc5a7
Slc6a12
Slc6a15
Slc6a17
Slc6a2
Slc6a6
Slc6a7
Slc6a8
Slc6a9
Slc7a1
Slc7a11
Slc7a14
Slc7a2
Slc7a3
Slc7a5
Slc7a8
Slc8a1
Slc9a1
Slc9a2
Slc9a3r1
Slc9a5
Slc9a6
Slc9a9
Slco1a1
Slco1a5
Slco1a6
Slco2a1
Slfn4
Slfn9
Slit1
Slit2
Slit3
Slitrk6
Slk
Slmo2
Sltm
Slu7
Slurp1
Slx1b
Slx4
Slx4ip
Smad1
Smad2
Smad3
Smad4
Smad6
Smad7
Smad9
Smap1
Smap2
Smarca2
Smarca4
Smarca5
Smarcad1
Smarcal1
Smarcc1
Smarcc2
Smarce1
Smc1a
Smc2
Smc3
Smc4
Smc5
Smchd1
Smcr7l
Smcr8
Smek1
Smek2
Smg1
Smg8
Smim1
Smim12
Smim13
Smim14
Smim3
Smim7
Smn1
Smndc1
Smo
Smoc1
Smoc2
Smox
Smpd1
Smpd3
Smpd4
Smpdl3a
Smpdl3b
Smtn
Smug1
Smurf1
Smurf2
Smyd1
Smyd3
Smyd4
Smyd5
Snai1
Snai2
Snap23
Snapc3
Sncaip
Snd1
Sned1
Snf8
Snhg1
Snhg10
Snhg11
Snhg12
Snhg3
Snhg4
Snhg6
Snhg7
Snhg9
Snn
Snrk
Snrnp200
Snrnp25
Snrnp27
Snrnp35
Snrnp48
Snrnp70
Snrpa
Snrpa1
Snrpb
Snrpb2
Snrpc
Snrpd2
Snrpg
Snta1
Sntb1
Sntg1
Snupn
Snw1
Snx10
Snx14
Snx15
Snx16
Snx19
Snx21
Snx24
Snx27
Snx3
Snx30
Snx33
Snx4
Snx7
Snx8
Snx9
Soat1
Soat2
Socs2
Socs4
Socs5
Socs6
Socs7
Sod1
Sod2
Sod3
Soga2
Solh
Son
Sorbs1
Sorbs2
Sorcs2
Sord
Sorl1
Sort1
Sos2
Sox10
Sox12
Sox4
Sox5
Sox6
Sox7
Sox9
Sp110
Sp140
Sp4
Sp7
Sp8
Spa17
Spag5
Spag7
Sparc
Sparcl1
Spast
Spata13
Spata2
Spata24
Spata2l
Spata5
Spata6
Spats2
Spats2l
Spc24
Spc25
Spcs2
Spcs3
Spdl1
Specc1
Speer3
Speer4a
Speer4b
Spef1
Speg
Spen
Spg20
Spg21
Sphk2
Spint1
Spn
Spns1
Spns2
Spon1
Spon2
Spopl
Sppl2a
Sppl2b
Sppl3
Spr
Spred2
Spred3
Sprr1a
Sprr2h
Sprtn
Spry1
Spry2
Spry4
Spryd3
Spsb1
Spsb3
Sptan1
Sptb
Sptbn1
Sptssa
Spty2d1
Sqle
Sqrdl
Sqstm1
Sra1
Srbd1
Srcrb4d
Srd5a1
Srd5a3
Srebf1
Srebf2
Srek1ip1
Srf
Srfbp1
Srgap1
Srgap2
Srgap3
Sri
Srm
Srp19
Srp54a
Srp68
Srp72
Srp9
Srpk2
Srpk3
Srpr
Srprb
Srpx2
Srrm2
Srrm4
Srrt
Srsf1
Srsf11
Srsf2
Srsf3
Srsf4
Srsf5
Srsf7
Srsf9
Srxn1
Ss18
Ssbp4
Ssc5d
Ssfa2
Ssh1
Ssh2
Ssh3
Ssna1
Sspn
Sspo
Ssr1
Ssr2
Ssr3
Ssr4
Sstr3
Ssu72
St13
St3gal1
St3gal2
St3gal4
St3gal5
St5
St6gal1
St6galnac2
St6galnac4
St6galnac6
St7
St7l
St8sia4
Stab1
Stac3
Stag1
Stag2
Stam
Stam2
Stambpl1
Stap2
Star
Stard10
Stard3
Stard3nl
Stard4
Stard5
Stard7
Stard8
Stat2
Stat3
Stat5a
Stat5b
Stau1
Stau2
Stbd1
Stc1
Stc2
Steap1
Steap2
Steap3
Steap4
Stil
Stim1
Stim2
Stip1
Stk10
Stk24
Stk3
Stk32a
Stk32b
Stk35
Stk38
Stk38l
Stk4
Stk40
Stmn2
Stom
Stoml1
Ston2
Stra13
Strada
Stradb
Strap
Strbp
Strn
Strn3
Strn4
Stt3a
Stt3b
Stub1
Stx11
Stx12
Stx16
Stx1a
Stx2
Stx3
Stx4a
Stx5a
Stx7
Stx8
Stxbp1
Stxbp2
Stxbp5
Styx
Sub1
Sucla2
Suclg1
Suco
Suds3
Sufu
Sugp2
Sugt1
Sulf2
Sult6b1
Sumf1
Sumf2
Sumo2
Sun2
Suox
Supt4a
Supt5
Surf2
Surf4
Surf6
Susd2
Suv39h1
Suv39h2
Suv420h1
Suv420h2
Suz12
Svil
Svip
Swap70
Swi5
Swt1
Syde1
Syde2
Syf2
Syk
Sympk
Syn1
Syne1
Syne2
Syne3
Syngr1
Syngr2
Synj1
Synj2
Synj2bp
Synm
Synpo
Synpo2l
Synrg
Sypl
Syt1
Syt11
Syt6
Syt7
Sytl2
Sytl3
Sytl5
Syvn1
Szt2
T2
Tab2
Tacc1
Tacc3
Taco1
Tada1
Tada2a
Tada3
Taf1
Taf11
Taf15
Taf1a
Taf1b
Taf1d
Taf3
Taf4b
Taf5l
Taf7l
Taf9
Taf9b
Tagln
Tagln2
Tamm41
Tanc1
Tanc2
Tango2
Tango6
Tank
Taok2
Tap1
Tap2
Tapbp
Tapbpl
Tarbp2
Tardbp
Tarm1
Tars
Tarsl2
Tasp1
Tatdn1
Tatdn2
Tax1bp1
Tbc1d1
Tbc1d10b
Tbc1d14
Tbc1d15
Tbc1d16
Tbc1d17
Tbc1d2
Tbc1d20
Tbc1d22a
Tbc1d22b
Tbc1d2b
Tbc1d30
Tbc1d4
Tbc1d8
Tbc1d8b
Tbc1d9
Tbc1d9b
Tbca
Tbcc
Tbccd1
Tbce
Tbcel
Tbk1
Tbkbp1
Tbl1x
Tbl1xr1
Tbl2
Tbl3
Tbpl1
Tbrg1
Tbrg4
Tbx15
Tbx18
Tbx3
Tcam1
Tcea1
Tcea3
Tceanc2
Tceb1
Tceb2
Tceb3
Tcerg1
Tcf12
Tcf19
Tcf20
Tcf4
Tcf7
Tcf7l1
Tcf7l2
Tchh
Tcirg1
Tcn2
Tcof1
Tcp1
Tcp11l2
Tcta
Tctex1d4
Tctn2
Tctn3
Tdg
Tdp2
Tdrd7
Tdrkh
Tead1
Tead2
Tead3
Tead4
Tecpr1
Tecpr2
Tecr
Tecta
Tefm
Tek
Tenc1
Tenm2
Tenm3
Tenm4
Tep1
Terf1
Tes
Tesk1
Tesk2
Tet3
Tex10
Tex2
Tex261
Tex264
Tex9
Tfam
Tfap4
Tfcp2
Tfcp2l1
Tfdp1
Tfeb
Tfg
Tfip11
Tfpi
Tg
Tgfb1
Tgfb1i1
Tgfb2
Tgfb3
Tgfbi
Tgfbr2
Tgfbr3
Tgfbrap1
Tgif1
Tgif2
Tgm2
Tgm4
Tgm5
Tgoln1
Tgs1
Tgtp1
Thada
Thap1
Thap2
Thap3
Thap4
Thap6
Thbd
Thbs1
Thbs2
Thbs3
Thbs4
Them4
Them6
Thnsl1
Thnsl2
Thoc1
Thoc2
Thoc3
Thoc5
Thoc6
Thoc7
Thsd1
Thsd4
Thtpa
Thumpd1
Thumpd3
Thyn1
Tial1
Tiam1
Tiam2
Ticam1
Ticrr
Tifa
Tigd2
Timeless
Timm10
Timm13
Timm17a
Timm17b
Timm23
Timm44
Timm8a1
Timm8b
Timm9
Timmdc1
Timp1
Timp2
Timp3
Tinagl1
Tinf2
Tjap1
Tjp2
Tk1
Tk2
Tlcd1
Tle1
Tle2
Tle6
Tlk1
Tlk2
Tll1
Tln1
Tln2
Tlr1
Tlr2
Tlr3
Tlr4
Tm2d1
Tm7sf2
Tm7sf3
Tm9sf2
Tma16
Tma7
Tmbim1
Tmbim4
Tmbim6
Tmc6
Tmcc1
Tmcc2
Tmcc3
Tmco3
Tmco6
Tmed1
Tmed10
Tmed2
Tmed3
Tmed4
Tmed5
Tmed7
Tmed8
Tmed9
Tmeff1
Tmem100
Tmem106a
Tmem106c
Tmem107
Tmem109
Tmem11
Tmem115
Tmem116
Tmem119
Tmem120b
Tmem123
Tmem126a
Tmem127
Tmem128
Tmem131
Tmem134
Tmem135
Tmem138
Tmem140
Tmem141
Tmem144
Tmem14c
Tmem150a
Tmem154
Tmem158
Tmem159
Tmem161a
Tmem167b
Tmem168
Tmem17
Tmem170b
Tmem171
Tmem173
Tmem176a
Tmem176b
Tmem179b
Tmem181a
Tmem181c-ps
Tmem182
Tmem183a
Tmem184a
Tmem184b
Tmem184c
Tmem186
Tmem189
Tmem192
Tmem194
Tmem198
Tmem198b
Tmem199
Tmem2
Tmem201
Tmem202
Tmem205
Tmem206
Tmem209
Tmem214
Tmem216
Tmem219
Tmem222
Tmem230
Tmem231
Tmem237
Tmem242
Tmem243
Tmem245
Tmem248
Tmem251
Tmem256
Tmem258
Tmem259
Tmem26
Tmem29
Tmem30a
Tmem33
Tmem38b
Tmem39a
Tmem42
Tmem43
Tmem45a
Tmem47
Tmem48
Tmem5
Tmem50a
Tmem53
Tmem55a
Tmem55b
Tmem56
Tmem60
Tmem63a
Tmem64
Tmem66
Tmem67
Tmem68
Tmem70
Tmem74
Tmem79
Tmem80
Tmem81
Tmem86a
Tmem87a
Tmem87b
Tmem8c
Tmem97
Tmem98
Tmem9b
Tmod2
Tmod3
Tmprss11f
Tmprss6
Tmsb10
Tmsb15a
Tmsb4x
Tmtc2
Tmtc3
Tmtc4
Tmub2
Tmx2
Tmx3
Tnc
Tnfaip1
Tnfaip2
Tnfaip3
Tnfaip6
Tnfaip8
Tnfaip8l1
Tnfrsf10b
Tnfrsf11b
Tnfrsf12a
Tnfrsf19
Tnfrsf1a
Tnfrsf21
Tnfrsf22
Tnfrsf23
Tnfrsf26
Tnfrsf9
Tnfsf10
Tnfsf12
Tnfsf13b
Tnfsf15
Tnfsf18
Tnik
Tnip1
Tnip2
Tnk2
Tnks
Tnks1bp1
Tnks2
Tnn
Tnnc1
Tnnc2
Tnni1
Tnni2
Tnni3k
Tnnt1
Tnnt2
Tnnt3
Tnpo1
Tnpo2
Tnpo3
Tnr
Tnrc18
Tnrc6b
Tnrc6c
Tns1
Tns3
Tnxb
Tob1
Toe1
Tollip
Tom1
Tom1l1
Tom1l2
Tomm20
Tomm22
Tomm34
Tomm40l
Tomm6
Tomm7
Tomm70a
Tonsl
Top1
Top1mt
Top2a
Top2b
Top3b
Topbp1
Tor1aip1
Tor1aip2
Tor1b
Tor3a
Tor4a
Tox
Tpbg
Tpcn2
Tpd52
Tpgs2
Tph2
Tpi1
Tpm1
Tpm2
Tpm3
Tpm4
Tpp1
Tpp2
Tppp
Tpr
Tpra1
Tprg
Tprkb
Tprn
Tpst1
Tpt1
Tpx2
Tra2a
Tra2b
Trabd
Trabd2b
Tradd
Traf1
Traf2
Traf3ip2
Traf3ip3
Traf4
Traf6
Traf7
Traip
Trak1
Trak2
Tram1
Tram1l1
Trap1
Trappc1
Trappc10
Trappc13
Trappc2
Trappc2l
Trappc3
Trappc4
Trappc5
Trappc6a
Trappc6b
Trappc8
Trdmt1
Trdn
Trem2
Trem3
Trerf1
Trhde
Trib1
Trib2
Trib3
Trim16
Trim2
Trim24
Trim25
Trim26
Trim27
Trim28
Trim29
Trim3
Trim32
Trim33
Trim35
Trim36
Trim37
Trim43c
Trim44
Trim45
Trim46
Trim47
Trim54
Trim55
Trim59
Trim6
Trim63
Trim65
Trim66
Trim7
Trim72
Trim8
Trio
Triobp
Trip10
Trip13
Trip6
Triqk
Trmt1
Trmt10a
Trmt10c
Trmt11
Trmt112
Trmt13
Trmt2a
Trmt2b
Trmt6
Trmt61a
Trmt61b
Trmu
Trnp1
Trnt1
Troap
Trp53
Trp53bp1
Trp53bp2
Trp53i13
Trp53inp2
Trp63
Trpc4ap
Trpm4
Trpm6
Trps1
Trpt1
Trpv2
Trpv4
Trrap
Trub1
Trub2
Try5
Tsacc
Tsc1
Tsc2
Tsc22d1
Tsc22d2
Tsc22d4
Tsen15
Tsen34
Tsg101
Tsga10
Tsga14
Tshz1
Tshz3
Tsku
Tslp
Tsn
Tspan12
Tspan13
Tspan15
Tspan17
Tspan2
Tspan3
Tspan31
Tspan33
Tspan4
Tspan5
Tspan6
Tspan7
Tspan9
Tspo
Tspyl1
Tspyl2
Tspyl4
Tsr1
Tsr3
Tssc4
Tstd3
Ttbk2
Ttc1
Ttc17
Ttc19
Ttc21b
Ttc23
Ttc26
Ttc27
Ttc28
Ttc3
Ttc30a1
Ttc30b
Ttc33
Ttc37
Ttc39a
Ttc39b
Ttc39c
Ttc7
Ttc8
Ttc9
Ttf1
Tti1
Tti2
Ttk
Ttl
Ttll1
Ttll11
Ttll12
Ttll3
Ttll4
Ttll5
Ttll7
Ttn
Ttpal
Ttyh2
Ttyh3
Tuba1a
Tuba1b
Tuba1c
Tuba4a
Tubb2a
Tubb2b
Tubb3
Tubb4b
Tubb5
Tubb6
Tubd1
Tube1
Tubg1
Tubgcp2
Tubgcp3
Tubgcp4
Tubgcp6
Tufm
Tug1
Tusc3
Tusc5
Tut1
Tvp23a
Tvp23b
Twf1
Twf2
Twist1
Twistnb
Twsg1
Txlnb
Txlng
Txn1
Txn2
Txndc11
Txndc12
Txndc15
Txndc16
Txndc5
Txndc9
Txnip
Txnl1
Txnl4a
Txnrd1
Tyk2
Tyms
U2surp
Uaca
Uap1
Uap1l1
Uba1
Uba2
Uba3
Uba5
Uba6
Uba7
Ubac1
Ubac2
Ubald1
Ubap1
Ubap2l
Ubb
Ubc
Ube2b
Ube2c
Ube2d1
Ube2d2a
Ube2d3
Ube2e1
Ube2f
Ube2g1
Ube2g2
Ube2h
Ube2i
Ube2j2
Ube2k
Ube2l3
Ube2l6
Ube2m
Ube2o
Ube2q1
Ube2q2
Ube2s
Ube2t
Ube2v1
Ube2v2
Ube2w
Ube2z
Ube3a
Ube3b
Ube3c
Ube4a
Ube4b
Ubl3
Ublcp1
Ubn1
Ubn2
Ubp1
Ubqln1
Ubqln4
Ubr1
Ubr2
Ubr4
Ubr5
Ubtd1
Ubtf
Ubxn1
Ubxn2a
Ubxn4
Ubxn6
Ubxn7
Ubxn8
Uchl1
Uevld
Ufd1l
Ufl1
Ufm1
Ufsp2
Ugcg
Ugdh
Uggt1
Uggt2
Ugp2
Ugt1a6a
Ugt1a7c
Ugt8a
Uhmk1
Uhrf1
Uhrf1bp1
Uhrf1bp1l
Uhrf2
Ulbp1
Ulk2
Unc119
Unc119b
Unc13a
Unc45a
Unc45b
Unc50
Unc5b
Unc5c
Unc93b1
Upf1
Upf2
Upf3a
Upf3b
Uprt
Uqcc
Uqcr11
Uqcrb
Uqcrc1
Uqcrfs1
Uqcrh
Uqcrq
Urb1
Urb2
Uri1
Uroc1
Urod
Usb1
Usf2
Usmg5
Uso1
Usp1
Usp10
Usp14
Usp15
Usp16
Usp17le
Usp18
Usp20
Usp21
Usp24
Usp3
Usp30
Usp31
Usp32
Usp33
Usp34
Usp35
Usp36
Usp37
Usp39
Usp42
Usp45
Usp46
Usp47
Usp49
Usp5
Usp53
Usp54
Usp6nl
Usp7
Usp8
Ust
Utp14a
Utp15
Utp18
Utp20
Utp23
Utp3
Utrn
Uvrag
Uxs1
Uxt
Vac14
Vamp2
Vamp3
Vamp4
Vamp5
Vamp8
Vangl1
Vangl2
Vapa
Vapb
Vars
Vars2
Vash1
Vash2
Vasn
Vasp
Vat1
Vav2
Vav3
Vax2
Vax2os
Vcam1
Vcp
Vcpip1
Vdac2
Vdac3
Vdr
Vegfa
Vegfb
Vezf1
Vezt
Vgf
Vgll2
Vgll3
Vill
Vim
Vimp
Vipr1
Vipr2
Vkorc1
Vldlr
Vma21
Vmac
Vmn2r3
Vmp1
Vnn1
Vopp1
Vprbp
Vps11
Vps13a
Vps13b
Vps13c
Vps13d
Vps18
Vps25
Vps26a
Vps26b
Vps29
Vps33a
Vps33b
Vps35
Vps36
Vps37a
Vps37b
Vps37c
Vps39
Vps41
Vps4b
Vps52
Vps54
Vps72
Vps8
Vps9d1
Vrk2
Vsig10
Vsnl1
Vta1
Vwa1
Vwa5a
Vwa9
Vwf
Wac
Wapal
Wars
Wars2
Wasf1
Wasf2
Wash
Wasl
Wbp1
Wbp11
Wbp1l
Wbp2
Wbp4
Wbp5
Wbscr16
Wbscr22
Wdfy1
Wdfy2
Wdfy3
Wdhd1
Wdr1
Wdr11
Wdr12
Wdr13
Wdr18
Wdr19
Wdr25
Wdr26
Wdr3
Wdr35
Wdr36
Wdr4
Wdr41
Wdr43
Wdr44
Wdr45
Wdr45b
Wdr48
Wdr5
Wdr59
Wdr5b
Wdr6
Wdr61
Wdr62
Wdr67
Wdr7
Wdr73
Wdr74
Wdr75
Wdr76
Wdr77
Wdr81
Wdr85
Wdr90
Wdr91
Wdr92
Wee1
Wfs1
Whamm
Whrn
Whsc1l1
Wif1
Wipf1
Wipf2
Wipi1
Wipi2
Wisp1
Wisp2
Wiz
Wls
Wnk1
Wnk3
Wnk4
Wnt10a
Wnt10b
Wnt16
Wnt4
Wnt5a
Wnt5b
Wnt9a
Wrb
Wrn
Wrnip1
Wsb1
Wsb2
Wscd2
Wtap
Wtip
Wwc1
Wwp1
Wwtr1
Xaf1
Xbp1
Xdh
Xiap
Xirp1
Xirp2
Xist
Xk
Xkr5
Xlr
Xlr3a
Xlr3c
Xpc
Xpnpep1
Xpnpep3
Xpo1
Xpo6
Xpo7
Xpot
Xpr1
Xrcc2
Xrcc3
Xrcc5
Xrcc6
Xrn2
Xrra1
Xylt1
Xylt2
Yae1d1
Yaf2
Yap1
Yars
Yars2
Ybx1
Yeats2
Yeats4
Yif1a
Yif1b
Yipf5
Yipf6
Ylpm1
Yme1l1
Ypel1
Ypel3
Ypel5
Yrdc
Ythdf1
Ythdf2
Ythdf3
Ywhab
Ywhag
Ywhah
Ywhaz
Yy2
Zadh2
Zan
Zbed4
Zbp1
Zbtb1
Zbtb10
Zbtb11
Zbtb12
Zbtb14
Zbtb18
Zbtb2
Zbtb21
Zbtb22
Zbtb24
Zbtb25
Zbtb26
Zbtb33
Zbtb34
Zbtb37
Zbtb39
Zbtb4
Zbtb40
Zbtb41
Zbtb43
Zbtb44
Zbtb45
Zbtb46
Zbtb5
Zbtb7a
Zbtb7b
Zbtb8a
Zbtb8os
Zbtbd6
Zc2hc1a
Zc3h10
Zc3h11a
Zc3h12a
Zc3h12b
Zc3h12c
Zc3h13
Zc3h14
Zc3h15
Zc3h18
Zc3h3
Zc3h4
Zc3h7b
Zc3hav1
Zc3hav1l
Zc4h2
Zcchc10
Zcchc11
Zcchc12
Zcchc14
Zcchc17
Zcchc2
Zcchc24
Zcchc5
Zcchc7
Zcchc8
Zcchc9
Zcrb1
Zdhhc12
Zdhhc13
Zdhhc15
Zdhhc16
Zdhhc17
Zdhhc20
Zdhhc21
Zdhhc4
Zdhhc5
Zdhhc6
Zdhhc8
Zeb2
Zer1
Zfand2a
Zfand3
Zfand4
Zfand5
Zfand6
Zfc3h1
Zfhx2
Zfp101
Zfp106
Zfp110
Zfp111
Zfp112
Zfp113
Zfp119a
Zfp119b
Zfp120
Zfp131
Zfp142
Zfp143
Zfp146
Zfp148
Zfp174
Zfp184
Zfp202
Zfp207
Zfp213
Zfp217
Zfp219
Zfp229
Zfp235
Zfp236
Zfp239
Zfp248
Zfp259
Zfp260
Zfp263
Zfp273
Zfp275
Zfp28
Zfp280d
Zfp282
Zfp287
Zfp300
Zfp316
Zfp317
Zfp319
Zfp324
Zfp326
Zfp330
Zfp334
Zfp335
Zfp346
Zfp35
Zfp354c
Zfp358
Zfp36
Zfp362
Zfp365
Zfp367
Zfp36l1
Zfp36l2
Zfp37
Zfp382
Zfp384
Zfp385a
Zfp386
Zfp39
Zfp397
Zfp40
Zfp41
Zfp414
Zfp423
Zfp428
Zfp429
Zfp442
Zfp444
Zfp449
Zfp456
Zfp458
Zfp467
Zfp472
Zfp474
Zfp503
Zfp507
Zfp516
Zfp518a
Zfp518b
Zfp52
Zfp523
Zfp532
Zfp54
Zfp551
Zfp553
Zfp558
Zfp563
Zfp566
Zfp568
Zfp57
Zfp579
Zfp583
Zfp592
Zfp593
Zfp595
Zfp597
Zfp598
Zfp60
Zfp607
Zfp608
Zfp609
Zfp62
Zfp622
Zfp623
Zfp628
Zfp637
Zfp639
Zfp646
Zfp647
Zfp651
Zfp652
Zfp653
Zfp655
Zfp661
Zfp664
Zfp667
Zfp672
Zfp68
Zfp687
Zfp689
Zfp69
Zfp697
Zfp7
Zfp704
Zfp706
Zfp709
Zfp712
Zfp72
Zfp740
Zfp746
Zfp748
Zfp759
Zfp763
Zfp771
Zfp78
Zfp787
Zfp788
Zfp790
Zfp791
Zfp799
Zfp800
Zfp804a
Zfp81
Zfp811
Zfp820
Zfp825
Zfp827
Zfp828
Zfp830
Zfp839
Zfp862
Zfp865
Zfp866
Zfp867
Zfp868
Zfp869
Zfp87
Zfp870
Zfp871
Zfp874b
Zfp9
Zfp90
Zfp91
Zfp930
Zfp932
Zfp934
Zfp935
Zfp937
Zfp938
Zfp942
Zfp945
Zfp946
Zfp948
Zfp949
Zfp951
Zfp952
Zfp954
Zfp955a
Zfp955b
Zfp961
Zfpm1
Zfr
Zfr2
Zfx
Zfyve1
Zfyve16
Zfyve19
Zfyve20
Zfyve26
Zfyve27
Zfyve9
Zgpat
Zhx1
Zhx2
Zhx3
Zic2
Zic5
Zik1
Zkscan1
Zkscan14
Zkscan16
Zkscan17
Zkscan3
Zkscan6
Zkscan8
Zmat1
Zmat2
Zmiz2
Zmpste24
Zmym2
Zmym3
Zmym5
Zmym6
Zmynd11
Zmynd19
Zmynd8
Znf512b
Znfx1
Znhit1
Znhit2
Znrd1
Znrf1
Znrf2
Znrf3
Zranb2
Zranb3
Zrsr1
Zrsr2
Zscan12
Zscan2
Zscan20
Zscan21
Zscan26
Zscan29
Zswim3
Zswim4
Zswim8
Zw10
Zwilch
Zwint
Zxda
Zxdb
Zxdc
Zyg11b
Zyx
Zzef1
Zzz3
